simulation/qsim/trabalhofinalcd.msim.vcd
$comment
	File created using the following command:
		vcd file trabalhofinalcd.msim.vcd -direction
$end
$date
	Sat Apr 01 16:22:46 2023
$end
$version
	ModelSim Version 10.1d
$end
$timescale
	1ps
$end
$scope module trabalhofinal_vlg_vec_tst $end
$var reg 1 ! clk $end
$var reg 1 " confirm_sw $end
$var reg 1 # read $end
$var reg 1 $ sw0 $end
$var reg 1 % sw1 $end
$var reg 1 & sw2 $end
$var reg 1 ' sw3 $end
$var reg 1 ( sw4 $end
$var reg 1 ) sw5 $end
$var reg 1 * sw6 $end
$var reg 1 + sw7 $end
$var reg 1 , sw8 $end
$var reg 1 - sw9 $end
$var reg 1 . write $end
$var wire 1 / address_reg_out [7] $end
$var wire 1 0 address_reg_out [6] $end
$var wire 1 1 address_reg_out [5] $end
$var wire 1 2 address_reg_out [4] $end
$var wire 1 3 address_reg_out [3] $end
$var wire 1 4 address_reg_out [2] $end
$var wire 1 5 address_reg_out [1] $end
$var wire 1 6 address_reg_out [0] $end
$var wire 1 7 data_out [7] $end
$var wire 1 8 data_out [6] $end
$var wire 1 9 data_out [5] $end
$var wire 1 : data_out [4] $end
$var wire 1 ; data_out [3] $end
$var wire 1 < data_out [2] $end
$var wire 1 = data_out [1] $end
$var wire 1 > data_out [0] $end
$var wire 1 ? data_reg_out [7] $end
$var wire 1 @ data_reg_out [6] $end
$var wire 1 A data_reg_out [5] $end
$var wire 1 B data_reg_out [4] $end
$var wire 1 C data_reg_out [3] $end
$var wire 1 D data_reg_out [2] $end
$var wire 1 E data_reg_out [1] $end
$var wire 1 F data_reg_out [0] $end
$var wire 1 G morte [7] $end
$var wire 1 H morte [6] $end
$var wire 1 I morte [5] $end
$var wire 1 J morte [4] $end
$var wire 1 K morte [3] $end
$var wire 1 L morte [2] $end
$var wire 1 M morte [1] $end
$var wire 1 N morte [0] $end
$var wire 1 O sampler $end
$scope module i1 $end
$var wire 1 P gnd $end
$var wire 1 Q vcc $end
$var wire 1 R unknown $end
$var tri1 1 S devclrn $end
$var tri1 1 T devpor $end
$var tri1 1 U devoe $end
$var wire 1 V address_reg_out[7]~output_o $end
$var wire 1 W address_reg_out[6]~output_o $end
$var wire 1 X address_reg_out[5]~output_o $end
$var wire 1 Y address_reg_out[4]~output_o $end
$var wire 1 Z address_reg_out[3]~output_o $end
$var wire 1 [ address_reg_out[2]~output_o $end
$var wire 1 \ address_reg_out[1]~output_o $end
$var wire 1 ] address_reg_out[0]~output_o $end
$var wire 1 ^ data_out[7]~output_o $end
$var wire 1 _ data_out[6]~output_o $end
$var wire 1 ` data_out[5]~output_o $end
$var wire 1 a data_out[4]~output_o $end
$var wire 1 b data_out[3]~output_o $end
$var wire 1 c data_out[2]~output_o $end
$var wire 1 d data_out[1]~output_o $end
$var wire 1 e data_out[0]~output_o $end
$var wire 1 f data_reg_out[7]~output_o $end
$var wire 1 g data_reg_out[6]~output_o $end
$var wire 1 h data_reg_out[5]~output_o $end
$var wire 1 i data_reg_out[4]~output_o $end
$var wire 1 j data_reg_out[3]~output_o $end
$var wire 1 k data_reg_out[2]~output_o $end
$var wire 1 l data_reg_out[1]~output_o $end
$var wire 1 m data_reg_out[0]~output_o $end
$var wire 1 n morte[7]~output_o $end
$var wire 1 o morte[6]~output_o $end
$var wire 1 p morte[5]~output_o $end
$var wire 1 q morte[4]~output_o $end
$var wire 1 r morte[3]~output_o $end
$var wire 1 s morte[2]~output_o $end
$var wire 1 t morte[1]~output_o $end
$var wire 1 u morte[0]~output_o $end
$var wire 1 v clk~input_o $end
$var wire 1 w clk~inputclkctrl_outclk $end
$var wire 1 x sw7~input_o $end
$var wire 1 y ADDRESS_REG|inst14|inst2~feeder_combout $end
$var wire 1 z sw9~input_o $end
$var wire 1 { confirm_sw~input_o $end
$var wire 1 | sw8~input_o $end
$var wire 1 } ADDRESS_REG|inst14|inst1|5~0_combout $end
$var wire 1 ~ ADDRESS_REG|inst14|inst2~q $end
$var wire 1 !! sw6~input_o $end
$var wire 1 "! ADDRESS_REG|inst13|inst2~feeder_combout $end
$var wire 1 #! ADDRESS_REG|inst13|inst2~q $end
$var wire 1 $! sw5~input_o $end
$var wire 1 %! ADDRESS_REG|inst12|inst2~q $end
$var wire 1 &! sw4~input_o $end
$var wire 1 '! ADDRESS_REG|inst11|inst2~feeder_combout $end
$var wire 1 (! ADDRESS_REG|inst11|inst2~q $end
$var wire 1 )! sw3~input_o $end
$var wire 1 *! ADDRESS_REG|inst10|inst2~q $end
$var wire 1 +! sw2~input_o $end
$var wire 1 ,! ADDRESS_REG|inst9|inst2~q $end
$var wire 1 -! sw1~input_o $end
$var wire 1 .! ADDRESS_REG|inst8|inst2~q $end
$var wire 1 /! sw0~input_o $end
$var wire 1 0! ADDRESS_REG|inst|inst2~q $end
$var wire 1 1! DATA_REG|inst14|inst2~feeder_combout $end
$var wire 1 2! DATA_REG|inst14|inst1|5~0_combout $end
$var wire 1 3! DATA_REG|inst14|inst2~q $end
$var wire 1 4! inst|inst12|inst14|inst2~feeder_combout $end
$var wire 1 5! inst|inst18|inst16|inst8~0_combout $end
$var wire 1 6! write~input_o $end
$var wire 1 7! inst|inst18|inst16|inst7~0_combout $end
$var wire 1 8! inst|inst12|inst14|inst2~q $end
$var wire 1 9! inst|inst10|inst14|inst2~feeder_combout $end
$var wire 1 :! inst|inst18|inst16|inst~0_combout $end
$var wire 1 ;! inst|inst10|inst14|inst2~q $end
$var wire 1 <! inst|inst18|inst16|inst8~1_combout $end
$var wire 1 =! inst|inst13|inst14|inst2~q $end
$var wire 1 >! inst|inst11|inst14|inst2~feeder_combout $end
$var wire 1 ?! inst|inst18|inst16|inst6~0_combout $end
$var wire 1 @! inst|inst11|inst14|inst2~q $end
$var wire 1 A! inst|inst20|inst6|41~0_combout $end
$var wire 1 B! inst|inst20|inst6|41~1_combout $end
$var wire 1 C! inst|inst14|inst14|inst2~feeder_combout $end
$var wire 1 D! inst|inst18|inst17|inst8~0_combout $end
$var wire 1 E! inst|inst18|inst17|inst~0_combout $end
$var wire 1 F! inst|inst14|inst14|inst2~q $end
$var wire 1 G! inst|inst15|inst14|inst2~feeder_combout $end
$var wire 1 H! inst|inst18|inst17|inst6~0_combout $end
$var wire 1 I! inst|inst15|inst14|inst2~q $end
$var wire 1 J! inst|inst16|inst14|inst2~feeder_combout $end
$var wire 1 K! inst|inst18|inst17|inst7~0_combout $end
$var wire 1 L! inst|inst16|inst14|inst2~q $end
$var wire 1 M! inst|inst18|inst17|inst8~1_combout $end
$var wire 1 N! inst|inst17|inst14|inst2~q $end
$var wire 1 O! inst|inst20|inst6|41~7_combout $end
$var wire 1 P! inst|inst20|inst6|41~8_combout $end
$var wire 1 Q! inst|inst5|inst14|inst2~feeder_combout $end
$var wire 1 R! inst|inst18|inst15|inst8~0_combout $end
$var wire 1 S! inst|inst18|inst15|inst6~0_combout $end
$var wire 1 T! inst|inst5|inst14|inst2~q $end
$var wire 1 U! inst|inst18|inst15|inst~0_combout $end
$var wire 1 V! inst|inst6|inst14|inst2~q $end
$var wire 1 W! inst|inst7|inst14|inst2~feeder_combout $end
$var wire 1 X! inst|inst18|inst15|inst7~0_combout $end
$var wire 1 Y! inst|inst7|inst14|inst2~q $end
$var wire 1 Z! inst|inst18|inst15|inst8~1_combout $end
$var wire 1 [! inst|inst8|inst14|inst2~q $end
$var wire 1 \! inst|inst20|inst6|41~2_combout $end
$var wire 1 ]! inst|inst20|inst6|41~3_combout $end
$var wire 1 ^! inst|inst18|inst13|inst8~1_combout $end
$var wire 1 _! inst|inst18|inst13|inst8~2_combout $end
$var wire 1 `! inst|inst4|inst14|inst2~q $end
$var wire 1 a! inst|inst2|inst14|inst2~feeder_combout $end
$var wire 1 b! inst|inst18|inst13|inst8~0_combout $end
$var wire 1 c! inst|inst18|inst13|inst6~0_combout $end
$var wire 1 d! inst|inst2|inst14|inst2~q $end
$var wire 1 e! inst|inst20|inst6|41~4_combout $end
$var wire 1 f! inst|inst18|inst13|inst~0_combout $end
$var wire 1 g! inst|inst|inst14|inst2~q $end
$var wire 1 h! inst|inst18|inst13|inst7~0_combout $end
$var wire 1 i! inst|inst3|inst14|inst2~q $end
$var wire 1 j! inst|inst20|inst6|41~5_combout $end
$var wire 1 k! inst|inst20|inst6|41~6_combout $end
$var wire 1 l! inst|inst20|inst6|41~9_combout $end
$var wire 1 m! read~input_o $end
$var wire 1 n! DATA_OUT_REG|inst14|inst2~q $end
$var wire 1 o! DATA_REG|inst13|inst2~feeder_combout $end
$var wire 1 p! DATA_REG|inst13|inst2~q $end
$var wire 1 q! inst|inst3|inst13|inst2~q $end
$var wire 1 r! inst|inst12|inst13|inst2~feeder_combout $end
$var wire 1 s! inst|inst12|inst13|inst2~q $end
$var wire 1 t! inst|inst20|inst5|41~0_combout $end
$var wire 1 u! inst|inst16|inst13|inst2~feeder_combout $end
$var wire 1 v! inst|inst16|inst13|inst2~q $end
$var wire 1 w! inst|inst7|inst13|inst2~feeder_combout $end
$var wire 1 x! inst|inst7|inst13|inst2~q $end
$var wire 1 y! inst|inst20|inst5|41~1_combout $end
$var wire 1 z! inst|inst10|inst13|inst2~feeder_combout $end
$var wire 1 {! inst|inst10|inst13|inst2~q $end
$var wire 1 |! inst|inst14|inst13|inst2~q $end
$var wire 1 }! inst|inst|inst13|inst2~q $end
$var wire 1 ~! inst|inst6|inst13|inst2~feeder_combout $end
$var wire 1 !" inst|inst6|inst13|inst2~q $end
$var wire 1 "" inst|inst20|inst5|41~7_combout $end
$var wire 1 #" inst|inst20|inst5|41~8_combout $end
$var wire 1 $" inst|inst11|inst13|inst2~feeder_combout $end
$var wire 1 %" inst|inst11|inst13|inst2~q $end
$var wire 1 &" inst|inst15|inst13|inst2~q $end
$var wire 1 '" inst|inst5|inst13|inst2~feeder_combout $end
$var wire 1 (" inst|inst5|inst13|inst2~q $end
$var wire 1 )" inst|inst2|inst13|inst2~q $end
$var wire 1 *" inst|inst20|inst5|41~2_combout $end
$var wire 1 +" inst|inst20|inst5|41~3_combout $end
$var wire 1 ," inst|inst8|inst13|inst2~feeder_combout $end
$var wire 1 -" inst|inst8|inst13|inst2~q $end
$var wire 1 ." inst|inst17|inst13|inst2~q $end
$var wire 1 /" inst|inst4|inst13|inst2~q $end
$var wire 1 0" inst|inst13|inst13|inst2~feeder_combout $end
$var wire 1 1" inst|inst13|inst13|inst2~q $end
$var wire 1 2" inst|inst20|inst5|41~4_combout $end
$var wire 1 3" inst|inst20|inst5|41~5_combout $end
$var wire 1 4" inst|inst20|inst5|41~6_combout $end
$var wire 1 5" inst|inst20|inst5|41~9_combout $end
$var wire 1 6" DATA_OUT_REG|inst13|inst2~q $end
$var wire 1 7" DATA_REG|inst12|inst2~q $end
$var wire 1 8" inst|inst6|inst12|inst2~feeder_combout $end
$var wire 1 9" inst|inst6|inst12|inst2~q $end
$var wire 1 :" inst|inst7|inst12|inst2~q $end
$var wire 1 ;" inst|inst5|inst12|inst2~q $end
$var wire 1 <" inst|inst8|inst12|inst2~feeder_combout $end
$var wire 1 =" inst|inst8|inst12|inst2~q $end
$var wire 1 >" inst|inst20|inst7|41~0_combout $end
$var wire 1 ?" inst|inst20|inst7|41~1_combout $end
$var wire 1 @" inst|inst14|inst12|inst2~feeder_combout $end
$var wire 1 A" inst|inst14|inst12|inst2~q $end
$var wire 1 B" inst|inst17|inst12|inst2~q $end
$var wire 1 C" inst|inst15|inst12|inst2~feeder_combout $end
$var wire 1 D" inst|inst15|inst12|inst2~q $end
$var wire 1 E" inst|inst20|inst7|41~7_combout $end
$var wire 1 F" inst|inst16|inst12|inst2~q $end
$var wire 1 G" inst|inst20|inst7|41~8_combout $end
$var wire 1 H" inst|inst11|inst12|inst2~feeder_combout $end
$var wire 1 I" inst|inst11|inst12|inst2~q $end
$var wire 1 J" inst|inst10|inst12|inst2~q $end
$var wire 1 K" inst|inst13|inst12|inst2~q $end
$var wire 1 L" inst|inst12|inst12|inst2~feeder_combout $end
$var wire 1 M" inst|inst12|inst12|inst2~q $end
$var wire 1 N" inst|inst20|inst7|41~2_combout $end
$var wire 1 O" inst|inst20|inst7|41~3_combout $end
$var wire 1 P" inst|inst3|inst12|inst2~q $end
$var wire 1 Q" inst|inst4|inst12|inst2~q $end
$var wire 1 R" inst|inst20|inst7|41~4_combout $end
$var wire 1 S" inst|inst|inst12|inst2~feeder_combout $end
$var wire 1 T" inst|inst|inst12|inst2~q $end
$var wire 1 U" inst|inst2|inst12|inst2~feeder_combout $end
$var wire 1 V" inst|inst2|inst12|inst2~q $end
$var wire 1 W" inst|inst20|inst7|41~5_combout $end
$var wire 1 X" inst|inst20|inst7|41~6_combout $end
$var wire 1 Y" inst|inst20|inst7|41~9_combout $end
$var wire 1 Z" DATA_OUT_REG|inst12|inst2~q $end
$var wire 1 [" DATA_REG|inst11|inst2~feeder_combout $end
$var wire 1 \" DATA_REG|inst11|inst2~q $end
$var wire 1 ]" inst|inst15|inst11|inst2~feeder_combout $end
$var wire 1 ^" inst|inst15|inst11|inst2~q $end
$var wire 1 _" inst|inst5|inst11|inst2~q $end
$var wire 1 `" inst|inst2|inst11|inst2~feeder_combout $end
$var wire 1 a" inst|inst2|inst11|inst2~q $end
$var wire 1 b" inst|inst11|inst11|inst2~feeder_combout $end
$var wire 1 c" inst|inst11|inst11|inst2~q $end
$var wire 1 d" inst|inst20|inst8|41~0_combout $end
$var wire 1 e" inst|inst20|inst8|41~1_combout $end
$var wire 1 f" inst|inst|inst11|inst2~q $end
$var wire 1 g" inst|inst10|inst11|inst2~feeder_combout $end
$var wire 1 h" inst|inst10|inst11|inst2~q $end
$var wire 1 i" inst|inst20|inst8|41~7_combout $end
$var wire 1 j" inst|inst14|inst11|inst2~q $end
$var wire 1 k" inst|inst6|inst11|inst2~feeder_combout $end
$var wire 1 l" inst|inst6|inst11|inst2~q $end
$var wire 1 m" inst|inst20|inst8|41~8_combout $end
$var wire 1 n" inst|inst12|inst11|inst2~feeder_combout $end
$var wire 1 o" inst|inst12|inst11|inst2~q $end
$var wire 1 p" inst|inst16|inst11|inst2~q $end
$var wire 1 q" inst|inst3|inst11|inst2~q $end
$var wire 1 r" inst|inst7|inst11|inst2~feeder_combout $end
$var wire 1 s" inst|inst7|inst11|inst2~q $end
$var wire 1 t" inst|inst20|inst8|41~2_combout $end
$var wire 1 u" inst|inst20|inst8|41~3_combout $end
$var wire 1 v" inst|inst13|inst11|inst2~feeder_combout $end
$var wire 1 w" inst|inst13|inst11|inst2~q $end
$var wire 1 x" inst|inst17|inst11|inst2~q $end
$var wire 1 y" inst|inst4|inst11|inst2~q $end
$var wire 1 z" inst|inst8|inst11|inst2~feeder_combout $end
$var wire 1 {" inst|inst8|inst11|inst2~q $end
$var wire 1 |" inst|inst20|inst8|41~4_combout $end
$var wire 1 }" inst|inst20|inst8|41~5_combout $end
$var wire 1 ~" inst|inst20|inst8|41~6_combout $end
$var wire 1 !# inst|inst20|inst8|41~9_combout $end
$var wire 1 "# DATA_OUT_REG|inst11|inst2~q $end
$var wire 1 ## DATA_REG|inst10|inst2~q $end
$var wire 1 $# inst|inst12|inst10|inst2~feeder_combout $end
$var wire 1 %# inst|inst12|inst10|inst2~q $end
$var wire 1 &# inst|inst10|inst10|inst2~q $end
$var wire 1 '# inst|inst13|inst10|inst2~feeder_combout $end
$var wire 1 (# inst|inst13|inst10|inst2~q $end
$var wire 1 )# inst|inst11|inst10|inst2~feeder_combout $end
$var wire 1 *# inst|inst11|inst10|inst2~q $end
$var wire 1 +# inst|inst20|inst|41~0_combout $end
$var wire 1 ,# inst|inst20|inst|41~1_combout $end
$var wire 1 -# inst|inst14|inst10|inst2~feeder_combout $end
$var wire 1 .# inst|inst14|inst10|inst2~q $end
$var wire 1 /# inst|inst15|inst10|inst2~feeder_combout $end
$var wire 1 0# inst|inst15|inst10|inst2~q $end
$var wire 1 1# inst|inst16|inst10|inst2~feeder_combout $end
$var wire 1 2# inst|inst16|inst10|inst2~q $end
$var wire 1 3# inst|inst17|inst10|inst2~q $end
$var wire 1 4# inst|inst20|inst|41~7_combout $end
$var wire 1 5# inst|inst20|inst|41~8_combout $end
$var wire 1 6# inst|inst4|inst10|inst2~q $end
$var wire 1 7# inst|inst2|inst10|inst2~feeder_combout $end
$var wire 1 8# inst|inst2|inst10|inst2~q $end
$var wire 1 9# inst|inst20|inst|41~4_combout $end
$var wire 1 :# inst|inst3|inst10|inst2~q $end
$var wire 1 ;# inst|inst|inst10|inst2~feeder_combout $end
$var wire 1 <# inst|inst|inst10|inst2~q $end
$var wire 1 =# inst|inst20|inst|41~5_combout $end
$var wire 1 ># inst|inst5|inst10|inst2~feeder_combout $end
$var wire 1 ?# inst|inst5|inst10|inst2~q $end
$var wire 1 @# inst|inst6|inst10|inst2~q $end
$var wire 1 A# inst|inst7|inst10|inst2~feeder_combout $end
$var wire 1 B# inst|inst7|inst10|inst2~q $end
$var wire 1 C# inst|inst8|inst10|inst2~q $end
$var wire 1 D# inst|inst20|inst|41~2_combout $end
$var wire 1 E# inst|inst20|inst|41~3_combout $end
$var wire 1 F# inst|inst20|inst|41~6_combout $end
$var wire 1 G# inst|inst20|inst|41~9_combout $end
$var wire 1 H# DATA_OUT_REG|inst10|inst2~q $end
$var wire 1 I# DATA_REG|inst9|inst2~feeder_combout $end
$var wire 1 J# DATA_REG|inst9|inst2~q $end
$var wire 1 K# inst|inst10|inst9|inst2~feeder_combout $end
$var wire 1 L# inst|inst10|inst9|inst2~q $end
$var wire 1 M# inst|inst14|inst9|inst2~q $end
$var wire 1 N# inst|inst|inst9|inst2~q $end
$var wire 1 O# inst|inst6|inst9|inst2~feeder_combout $end
$var wire 1 P# inst|inst6|inst9|inst2~q $end
$var wire 1 Q# inst|inst20|inst2|41~7_combout $end
$var wire 1 R# inst|inst20|inst2|41~8_combout $end
$var wire 1 S# inst|inst11|inst9|inst2~feeder_combout $end
$var wire 1 T# inst|inst11|inst9|inst2~q $end
$var wire 1 U# inst|inst15|inst9|inst2~q $end
$var wire 1 V# inst|inst5|inst9|inst2~feeder_combout $end
$var wire 1 W# inst|inst5|inst9|inst2~q $end
$var wire 1 X# inst|inst2|inst9|inst2~q $end
$var wire 1 Y# inst|inst20|inst2|41~2_combout $end
$var wire 1 Z# inst|inst20|inst2|41~3_combout $end
$var wire 1 [# inst|inst8|inst9|inst2~feeder_combout $end
$var wire 1 \# inst|inst8|inst9|inst2~q $end
$var wire 1 ]# inst|inst17|inst9|inst2~q $end
$var wire 1 ^# inst|inst4|inst9|inst2~q $end
$var wire 1 _# inst|inst13|inst9|inst2~feeder_combout $end
$var wire 1 `# inst|inst13|inst9|inst2~q $end
$var wire 1 a# inst|inst20|inst2|41~4_combout $end
$var wire 1 b# inst|inst20|inst2|41~5_combout $end
$var wire 1 c# inst|inst20|inst2|41~6_combout $end
$var wire 1 d# inst|inst16|inst9|inst2~feeder_combout $end
$var wire 1 e# inst|inst16|inst9|inst2~q $end
$var wire 1 f# inst|inst7|inst9|inst2~q $end
$var wire 1 g# inst|inst3|inst9|inst2~q $end
$var wire 1 h# inst|inst12|inst9|inst2~feeder_combout $end
$var wire 1 i# inst|inst12|inst9|inst2~q $end
$var wire 1 j# inst|inst20|inst2|41~0_combout $end
$var wire 1 k# inst|inst20|inst2|41~1_combout $end
$var wire 1 l# inst|inst20|inst2|41~9_combout $end
$var wire 1 m# DATA_OUT_REG|inst9|inst2~q $end
$var wire 1 n# DATA_REG|inst8|inst2~q $end
$var wire 1 o# inst|inst6|inst8|inst2~feeder_combout $end
$var wire 1 p# inst|inst6|inst8|inst2~q $end
$var wire 1 q# inst|inst7|inst8|inst2~feeder_combout $end
$var wire 1 r# inst|inst7|inst8|inst2~q $end
$var wire 1 s# inst|inst5|inst8|inst2~feeder_combout $end
$var wire 1 t# inst|inst5|inst8|inst2~q $end
$var wire 1 u# inst|inst8|inst8|inst2~q $end
$var wire 1 v# inst|inst20|inst3|41~0_combout $end
$var wire 1 w# inst|inst20|inst3|41~1_combout $end
$var wire 1 x# inst|inst16|inst8|inst2~feeder_combout $end
$var wire 1 y# inst|inst16|inst8|inst2~q $end
$var wire 1 z# inst|inst14|inst8|inst2~q $end
$var wire 1 {# inst|inst17|inst8|inst2~q $end
$var wire 1 |# inst|inst15|inst8|inst2~feeder_combout $end
$var wire 1 }# inst|inst15|inst8|inst2~q $end
$var wire 1 ~# inst|inst20|inst3|41~7_combout $end
$var wire 1 !$ inst|inst20|inst3|41~8_combout $end
$var wire 1 "$ inst|inst11|inst8|inst2~feeder_combout $end
$var wire 1 #$ inst|inst11|inst8|inst2~q $end
$var wire 1 $$ inst|inst10|inst8|inst2~q $end
$var wire 1 %$ inst|inst13|inst8|inst2~q $end
$var wire 1 &$ inst|inst12|inst8|inst2~feeder_combout $end
$var wire 1 '$ inst|inst12|inst8|inst2~q $end
$var wire 1 ($ inst|inst20|inst3|41~2_combout $end
$var wire 1 )$ inst|inst20|inst3|41~3_combout $end
$var wire 1 *$ inst|inst2|inst8|inst2~feeder_combout $end
$var wire 1 +$ inst|inst2|inst8|inst2~q $end
$var wire 1 ,$ inst|inst|inst8|inst2~q $end
$var wire 1 -$ inst|inst3|inst8|inst2~feeder_combout $end
$var wire 1 .$ inst|inst3|inst8|inst2~q $end
$var wire 1 /$ inst|inst4|inst8|inst2~q $end
$var wire 1 0$ inst|inst20|inst3|41~4_combout $end
$var wire 1 1$ inst|inst20|inst3|41~5_combout $end
$var wire 1 2$ inst|inst20|inst3|41~6_combout $end
$var wire 1 3$ inst|inst20|inst3|41~9_combout $end
$var wire 1 4$ DATA_OUT_REG|inst8|inst2~q $end
$var wire 1 5$ DATA_REG|inst|inst2~q $end
$var wire 1 6$ inst|inst5|inst|inst2~feeder_combout $end
$var wire 1 7$ inst|inst5|inst|inst2~q $end
$var wire 1 8$ inst|inst15|inst|inst2~q $end
$var wire 1 9$ inst|inst11|inst|inst2~feeder_combout $end
$var wire 1 :$ inst|inst11|inst|inst2~q $end
$var wire 1 ;$ inst|inst2|inst|inst2~q $end
$var wire 1 <$ inst|inst20|inst4|41~0_combout $end
$var wire 1 =$ inst|inst20|inst4|41~1_combout $end
$var wire 1 >$ inst|inst6|inst|inst2~feeder_combout $end
$var wire 1 ?$ inst|inst6|inst|inst2~q $end
$var wire 1 @$ inst|inst14|inst|inst2~q $end
$var wire 1 A$ inst|inst|inst|inst2~q $end
$var wire 1 B$ inst|inst10|inst|inst2~feeder_combout $end
$var wire 1 C$ inst|inst10|inst|inst2~q $end
$var wire 1 D$ inst|inst20|inst4|41~7_combout $end
$var wire 1 E$ inst|inst20|inst4|41~8_combout $end
$var wire 1 F$ inst|inst12|inst|inst2~feeder_combout $end
$var wire 1 G$ inst|inst12|inst|inst2~q $end
$var wire 1 H$ inst|inst16|inst|inst2~feeder_combout $end
$var wire 1 I$ inst|inst16|inst|inst2~q $end
$var wire 1 J$ inst|inst7|inst|inst2~feeder_combout $end
$var wire 1 K$ inst|inst7|inst|inst2~q $end
$var wire 1 L$ inst|inst3|inst|inst2~feeder_combout $end
$var wire 1 M$ inst|inst3|inst|inst2~q $end
$var wire 1 N$ inst|inst20|inst4|41~2_combout $end
$var wire 1 O$ inst|inst20|inst4|41~3_combout $end
$var wire 1 P$ inst|inst13|inst|inst2~feeder_combout $end
$var wire 1 Q$ inst|inst13|inst|inst2~q $end
$var wire 1 R$ inst|inst17|inst|inst2~q $end
$var wire 1 S$ inst|inst4|inst|inst2~q $end
$var wire 1 T$ inst|inst8|inst|inst2~feeder_combout $end
$var wire 1 U$ inst|inst8|inst|inst2~q $end
$var wire 1 V$ inst|inst20|inst4|41~4_combout $end
$var wire 1 W$ inst|inst20|inst4|41~5_combout $end
$var wire 1 X$ inst|inst20|inst4|41~6_combout $end
$var wire 1 Y$ inst|inst20|inst4|41~9_combout $end
$var wire 1 Z$ DATA_OUT_REG|inst|inst2~q $end
$upscope $end
$upscope $end
$enddefinitions $end
#0
$dumpvars
0!
0"
0#
0$
1%
0&
1'
0(
0)
0*
0+
1,
1-
0.
x6
x5
x4
x3
x2
x1
x0
x/
x>
x=
x<
x;
x:
x9
x8
x7
xF
xE
xD
xC
xB
xA
x@
x?
xN
xM
xL
xK
xJ
xI
xH
xG
xO
0P
1Q
xR
1S
1T
1U
xV
xW
xX
xY
xZ
x[
x\
x]
x^
x_
x`
xa
xb
xc
xd
xe
xf
xg
xh
xi
xj
xk
xl
xm
xn
xo
xp
xq
xr
xs
xt
xu
0v
xw
0x
xy
1z
0{
1|
x}
0~
0!!
x"!
0#!
0$!
0%!
0&!
x'!
0(!
1)!
0*!
0+!
0,!
1-!
0.!
0/!
00!
x1!
x2!
03!
x4!
x5!
06!
x7!
08!
x9!
x:!
0;!
x<!
0=!
x>!
x?!
0@!
xA!
xB!
xC!
xD!
xE!
0F!
xG!
xH!
0I!
xJ!
xK!
0L!
xM!
0N!
xO!
xP!
xQ!
xR!
xS!
0T!
xU!
0V!
xW!
xX!
0Y!
xZ!
0[!
x\!
x]!
x^!
x_!
0`!
xa!
xb!
xc!
0d!
xe!
xf!
0g!
xh!
0i!
xj!
xk!
xl!
0m!
0n!
xo!
0p!
0q!
xr!
0s!
xt!
xu!
0v!
xw!
0x!
xy!
xz!
0{!
0|!
0}!
x~!
0!"
x""
x#"
x$"
0%"
0&"
x'"
0("
0)"
x*"
x+"
x,"
0-"
0."
0/"
x0"
01"
x2"
x3"
x4"
x5"
06"
07"
x8"
09"
0:"
0;"
x<"
0="
x>"
x?"
x@"
0A"
0B"
xC"
0D"
xE"
0F"
xG"
xH"
0I"
0J"
0K"
xL"
0M"
xN"
xO"
0P"
0Q"
xR"
xS"
0T"
xU"
0V"
xW"
xX"
xY"
0Z"
x["
0\"
x]"
0^"
0_"
x`"
0a"
xb"
0c"
xd"
xe"
0f"
xg"
0h"
xi"
0j"
xk"
0l"
xm"
xn"
0o"
0p"
0q"
xr"
0s"
xt"
xu"
xv"
0w"
0x"
0y"
xz"
0{"
x|"
x}"
x~"
x!#
0"#
0##
x$#
0%#
0&#
x'#
0(#
x)#
0*#
x+#
x,#
x-#
0.#
x/#
00#
x1#
02#
03#
x4#
x5#
06#
x7#
08#
x9#
0:#
x;#
0<#
x=#
x>#
0?#
0@#
xA#
0B#
0C#
xD#
xE#
xF#
xG#
0H#
xI#
0J#
xK#
0L#
0M#
0N#
xO#
0P#
xQ#
xR#
xS#
0T#
0U#
xV#
0W#
0X#
xY#
xZ#
x[#
0\#
0]#
0^#
x_#
0`#
xa#
xb#
xc#
xd#
0e#
0f#
0g#
xh#
0i#
xj#
xk#
xl#
0m#
0n#
xo#
0p#
xq#
0r#
xs#
0t#
0u#
xv#
xw#
xx#
0y#
0z#
0{#
x|#
0}#
x~#
x!$
x"$
0#$
0$$
0%$
x&$
0'$
x($
x)$
x*$
0+$
0,$
x-$
0.$
0/$
x0$
x1$
x2$
x3$
04$
05$
x6$
07$
08$
x9$
0:$
0;$
x<$
x=$
x>$
0?$
0@$
0A$
xB$
0C$
xD$
xE$
xF$
0G$
xH$
0I$
xJ$
0K$
xL$
0M$
xN$
xO$
xP$
0Q$
0R$
0S$
xT$
0U$
xV$
xW$
xX$
xY$
0Z$
$end
#145
0w
#589
0X!
#600
0d#
#605
0R"
#686
0D!
#724
0z"
#725
0J!
#751
0R!
#795
0u!
#811
0?!
#837
0'#
#844
0>#
#847
0T$
#860
04#
#863
0O!
#871
0z!
00"
#878
05!
#882
0H$
#883
0S!
#887
0n"
#891
01#
#903
0e!
09#
0-$
#907
00$
#910
0@"
#918
0g"
0v"
#930
0k"
#934
0t"
#937
0|"
#938
0V$
#945
1b!
#957
0E!
0f!
#961
0c!
#967
0t!
#970
0a#
#975
0j#
#976
02"
#989
0G!
#990
0+#
#993
0P$
#1002
0$"
#1005
0b"
#1014
0U"
#1027
07!
#1034
09!
0A#
#1035
0W!
#1039
0r!
#1042
0,"
#1044
0~!
#1046
0`"
#1050
0-#
0;#
#1062
0d"
#1063
0]"
#1067
0N$
0_#
#1068
0S#
#1069
08"
0V#
#1072
0<"
#1075
0>"
#1077
0S"
#1081
09$
#1090
0w!
#1092
0h!
0'"
#1094
0:!
#1111
0E"
0~#
#1112
0s#
#1114
0v#
#1118
0\!
0D#
#1124
0<$
#1127
0K!
#1133
0N"
0($
#1138
0/#
#1141
0Y#
#1142
0*"
#1146
06$
#1157
0Q#
#1158
0)#
0"$
#1161
0""
#1169
0Q!
#1172
07#
#1175
0i"
#1176
0$#
#1178
0D$
#1179
05#
#1180
0F$
#1183
0L"
#1188
0r"
#1189
0|#
#1205
0K#
#1217
0J$
#1219
0A!
#1221
0B$
#1233
0>$
#1239
0U!
#1244
0L$
#1267
0a!
#1270
04!
#1299
0H!
#1307
0,#
#1326
0P!
#1331
0H"
#1334
0C!
#1337
0>!
#1358
0W"
#1372
0M!
#1376
0<!
#1379
0e"
#1385
0*$
#1386
0&$
#1396
0o#
0?"
#1404
0x#
#1435
0]!
#1438
0E#
#1445
0=$
#1453
0O"
#1460
0Z#
#1462
0+"
#1476
0R#
#1481
0#"
#1489
0h#
#1491
0C"
#1497
0E$
0[#
#1501
0O#
#1502
0q#
#1517
0=#
#1527
0O$
#1572
0w#
#1595
0)$
#1602
0u"
#1622
0W$
#1638
01$
#1658
0j!
#1668
0Z!
#1678
0X"
#1686
0k#
#1687
0B!
#1718
0G"
#1767
0m"
#1774
0!$
#1805
0}"
#1832
0b#
#1875
0y!
#1895
03"
#1958
02$
#1980
0k!
#1999
0Y"
#2066
0X$
#2125
0~"
#2132
0F#
#2150
0c#
#2215
04"
#2276
03$
#2300
0^!
#2301
0l!
#2385
0Y$
#2443
0!#
#2452
0G#
