simulation/qsim/trabalhofinalcd.msim.vcd
$comment
	File created using the following command:
		vcd file trabalhofinalcd.msim.vcd -direction
$end
$date
	Tue Apr 04 22:23:31 2023
$end
$version
	ModelSim Version 10.1d
$end
$timescale
	1ps
$end
$scope module count_vlg_vec_tst $end
$var reg 1 ! button $end
$var wire 1 " count [1] $end
$var wire 1 # count [0] $end
$var wire 1 $ sampler $end
$scope module i1 $end
$var wire 1 % gnd $end
$var wire 1 & vcc $end
$var wire 1 ' unknown $end
$var tri1 1 ( devclrn $end
$var tri1 1 ) devpor $end
$var tri1 1 * devoe $end
$var wire 1 + count[1]~output_o $end
$var wire 1 , count[0]~output_o $end
$var wire 1 - button~input_o $end
$var wire 1 . inst~0_combout $end
$var wire 1 / inst~feeder_combout $end
$var wire 1 0 inst~q $end
$var wire 1 1 inst1~0_combout $end
$var wire 1 2 inst1~q $end
$upscope $end
$upscope $end
$enddefinitions $end
#0
$dumpvars
0!
0#
0"
x$
0%
1&
x'
1(
1)
1*
0+
0,
0-
1.
1/
00
11
02
$end
#50000
1!
1-
0$
10
0.
1,
1#
0/
#100000
0!
0-
1$
#150000
1!
1-
0$
00
1.
0,
0#
1/
12
01
1+
1"
#200000
0!
0-
1$
#250000
1!
1-
0$
10
0.
1,
1#
0/
#300000
0!
0-
1$
#350000
1!
1-
0$
00
1.
0,
0#
1/
02
11
0+
0"
#400000
0!
0-
1$
#450000
1!
1-
0$
10
0.
1,
1#
0/
#500000
0!
0-
1$
#550000
1!
1-
0$
00
1.
0,
0#
1/
12
01
1+
1"
#600000
0!
0-
1$
#650000
1!
1-
0$
10
0.
1,
1#
0/
#700000
0!
0-
1$
#750000
1!
1-
0$
00
1.
0,
0#
1/
02
11
0+
0"
#800000
0!
0-
1$
#850000
1!
1-
0$
10
0.
1,
1#
0/
#900000
0!
0-
1$
#950000
1!
1-
0$
00
1.
0,
0#
1/
12
01
1+
1"
