simulation/qsim/trabalhofinalcd.msim.vcd
$comment
	File created using the following command:
		vcd file trabalhofinalcd.msim.vcd -direction
$end
$date
	Mon Mar 27 13:17:28 2023
$end
$version
	ModelSim Version 10.1d
$end
$timescale
	1ps
$end
$scope module MEM_16ADD_vlg_vec_tst $end
$var reg 1 ! a0 $end
$var reg 1 " a1 $end
$var reg 1 # a2 $end
$var reg 1 $ a3 $end
$var reg 1 % clk $end
$var reg 8 & data_in [7:0] $end
$var reg 1 ' read $end
$var reg 1 ( write $end
$var wire 1 ) data_out [7] $end
$var wire 1 * data_out [6] $end
$var wire 1 + data_out [5] $end
$var wire 1 , data_out [4] $end
$var wire 1 - data_out [3] $end
$var wire 1 . data_out [2] $end
$var wire 1 / data_out [1] $end
$var wire 1 0 data_out [0] $end
$var wire 1 1 sampler $end
$scope module i1 $end
$var wire 1 2 gnd $end
$var wire 1 3 vcc $end
$var wire 1 4 unknown $end
$var tri1 1 5 devclrn $end
$var tri1 1 6 devpor $end
$var tri1 1 7 devoe $end
$var wire 1 8 data_out[7]~output_o $end
$var wire 1 9 data_out[6]~output_o $end
$var wire 1 : data_out[5]~output_o $end
$var wire 1 ; data_out[4]~output_o $end
$var wire 1 < data_out[3]~output_o $end
$var wire 1 = data_out[2]~output_o $end
$var wire 1 > data_out[1]~output_o $end
$var wire 1 ? data_out[0]~output_o $end
$var wire 1 @ a1~input_o $end
$var wire 1 A clk~input_o $end
$var wire 1 B clk~inputclkctrl_outclk $end
$var wire 1 C data_in[7]~input_o $end
$var wire 1 D a2~input_o $end
$var wire 1 E inst18|inst15|inst8~0_combout $end
$var wire 1 F a0~input_o $end
$var wire 1 G a3~input_o $end
$var wire 1 H write~input_o $end
$var wire 1 I inst18|inst15|inst7~0_combout $end
$var wire 1 J inst7|inst14|inst2~q $end
$var wire 1 K inst18|inst15|inst8~1_combout $end
$var wire 1 L inst8|inst14|inst2~q $end
$var wire 1 M inst20|inst6|48~0_combout $end
$var wire 1 N inst18|inst15|inst6~0_combout $end
$var wire 1 O inst18|inst15|inst~0_combout $end
$var wire 1 P inst6|inst14|inst2~q $end
$var wire 1 Q inst5|inst14|inst2~feeder_combout $end
$var wire 1 R inst18|inst15|inst6~1_combout $end
$var wire 1 S inst5|inst14|inst2~q $end
$var wire 1 T inst20|inst6|48~1_combout $end
$var wire 1 U read~input_o $end
$var wire 1 V inst20|inst6|48~2_combout $end
$var wire 1 W inst3|inst14|inst2~feeder_combout $end
$var wire 1 X inst18|inst13|inst8~0_combout $end
$var wire 1 Y inst18|inst13|inst7~0_combout $end
$var wire 1 Z inst3|inst14|inst2~q $end
$var wire 1 [ inst18|inst13|inst6~0_combout $end
$var wire 1 \ inst18|inst13|inst~0_combout $end
$var wire 1 ] inst|inst14|inst2~q $end
$var wire 1 ^ inst18|inst13|inst6~1_combout $end
$var wire 1 _ inst2|inst14|inst2~q $end
$var wire 1 ` inst18|inst13|inst8~1_combout $end
$var wire 1 a inst4|inst14|inst2~q $end
$var wire 1 b inst20|inst6|49~0_combout $end
$var wire 1 c inst20|inst6|49~1_combout $end
$var wire 1 d inst20|inst6|49~2_combout $end
$var wire 1 e inst20|inst6|41~0_combout $end
$var wire 1 f inst11|inst14|inst2~feeder_combout $end
$var wire 1 g inst18|inst16|inst6~0_combout $end
$var wire 1 h inst11|inst14|inst2~q $end
$var wire 1 i inst18|inst16|inst8~0_combout $end
$var wire 1 j inst13|inst14|inst2~q $end
$var wire 1 k inst20|inst6|47~0_combout $end
$var wire 1 l inst12|inst14|inst2~feeder_combout $end
$var wire 1 m inst18|inst16|inst7~0_combout $end
$var wire 1 n inst12|inst14|inst2~q $end
$var wire 1 o inst18|inst16|inst~0_combout $end
$var wire 1 p inst10|inst14|inst2~q $end
$var wire 1 q inst20|inst6|47~1_combout $end
$var wire 1 r inst20|inst6|47~2_combout $end
$var wire 1 s inst18|inst17|inst6~0_combout $end
$var wire 1 t inst15|inst14|inst2~q $end
$var wire 1 u inst18|inst17|inst~0_combout $end
$var wire 1 v inst14|inst14|inst2~q $end
$var wire 1 w inst16|inst14|inst2~feeder_combout $end
$var wire 1 x inst18|inst17|inst7~0_combout $end
$var wire 1 y inst16|inst14|inst2~q $end
$var wire 1 z inst18|inst17|inst8~0_combout $end
$var wire 1 { inst17|inst14|inst2~q $end
$var wire 1 | inst20|inst6|46~0_combout $end
$var wire 1 } inst20|inst6|46~1_combout $end
$var wire 1 ~ inst20|inst6|46~2_combout $end
$var wire 1 !! inst20|inst6|41~1_combout $end
$var wire 1 "! data_in[6]~input_o $end
$var wire 1 #! inst12|inst13|inst2~feeder_combout $end
$var wire 1 $! inst12|inst13|inst2~q $end
$var wire 1 %! inst11|inst13|inst2~feeder_combout $end
$var wire 1 &! inst11|inst13|inst2~q $end
$var wire 1 '! inst13|inst13|inst2~q $end
$var wire 1 (! inst20|inst5|47~0_combout $end
$var wire 1 )! inst10|inst13|inst2~q $end
$var wire 1 *! inst20|inst5|47~1_combout $end
$var wire 1 +! inst20|inst5|47~2_combout $end
$var wire 1 ,! inst8|inst13|inst2~q $end
$var wire 1 -! inst7|inst13|inst2~feeder_combout $end
$var wire 1 .! inst7|inst13|inst2~q $end
$var wire 1 /! inst20|inst5|48~0_combout $end
$var wire 1 0! inst6|inst13|inst2~q $end
$var wire 1 1! inst5|inst13|inst2~feeder_combout $end
$var wire 1 2! inst5|inst13|inst2~q $end
$var wire 1 3! inst20|inst5|48~1_combout $end
$var wire 1 4! inst3|inst13|inst2~q $end
$var wire 1 5! inst|inst13|inst2~q $end
$var wire 1 6! inst2|inst13|inst2~q $end
$var wire 1 7! inst4|inst13|inst2~q $end
$var wire 1 8! inst20|inst5|49~0_combout $end
$var wire 1 9! inst20|inst5|49~1_combout $end
$var wire 1 :! inst20|inst5|41~0_combout $end
$var wire 1 ;! inst15|inst13|inst2~q $end
$var wire 1 <! inst14|inst13|inst2~q $end
$var wire 1 =! inst16|inst13|inst2~q $end
$var wire 1 >! inst17|inst13|inst2~q $end
$var wire 1 ?! inst20|inst5|46~0_combout $end
$var wire 1 @! inst20|inst5|46~1_combout $end
$var wire 1 A! inst20|inst5|41~1_combout $end
$var wire 1 B! data_in[5]~input_o $end
$var wire 1 C! inst3|inst12|inst2~feeder_combout $end
$var wire 1 D! inst3|inst12|inst2~q $end
$var wire 1 E! inst|inst12|inst2~q $end
$var wire 1 F! inst4|inst12|inst2~q $end
$var wire 1 G! inst2|inst12|inst2~feeder_combout $end
$var wire 1 H! inst2|inst12|inst2~q $end
$var wire 1 I! inst20|inst7|49~0_combout $end
$var wire 1 J! inst20|inst7|49~1_combout $end
$var wire 1 K! inst7|inst12|inst2~q $end
$var wire 1 L! inst8|inst12|inst2~q $end
$var wire 1 M! inst20|inst7|48~0_combout $end
$var wire 1 N! inst6|inst12|inst2~q $end
$var wire 1 O! inst5|inst12|inst2~q $end
$var wire 1 P! inst20|inst7|48~1_combout $end
$var wire 1 Q! inst20|inst7|41~0_combout $end
$var wire 1 R! inst11|inst12|inst2~feeder_combout $end
$var wire 1 S! inst11|inst12|inst2~q $end
$var wire 1 T! inst13|inst12|inst2~q $end
$var wire 1 U! inst20|inst7|47~0_combout $end
$var wire 1 V! inst10|inst12|inst2~q $end
$var wire 1 W! inst12|inst12|inst2~feeder_combout $end
$var wire 1 X! inst12|inst12|inst2~q $end
$var wire 1 Y! inst20|inst7|47~1_combout $end
$var wire 1 Z! inst20|inst7|47~2_combout $end
$var wire 1 [! inst15|inst12|inst2~feeder_combout $end
$var wire 1 \! inst15|inst12|inst2~q $end
$var wire 1 ]! inst14|inst12|inst2~q $end
$var wire 1 ^! inst16|inst12|inst2~q $end
$var wire 1 _! inst17|inst12|inst2~q $end
$var wire 1 `! inst20|inst7|46~0_combout $end
$var wire 1 a! inst20|inst7|46~1_combout $end
$var wire 1 b! inst20|inst7|41~1_combout $end
$var wire 1 c! data_in[4]~input_o $end
$var wire 1 d! inst15|inst11|inst2~feeder_combout $end
$var wire 1 e! inst15|inst11|inst2~q $end
$var wire 1 f! inst14|inst11|inst2~q $end
$var wire 1 g! inst16|inst11|inst2~q $end
$var wire 1 h! inst17|inst11|inst2~q $end
$var wire 1 i! inst20|inst8|46~0_combout $end
$var wire 1 j! inst20|inst8|46~1_combout $end
$var wire 1 k! inst2|inst11|inst2~q $end
$var wire 1 l! inst4|inst11|inst2~q $end
$var wire 1 m! inst20|inst8|49~0_combout $end
$var wire 1 n! inst|inst11|inst2~q $end
$var wire 1 o! inst3|inst11|inst2~q $end
$var wire 1 p! inst20|inst8|49~1_combout $end
$var wire 1 q! inst8|inst11|inst2~q $end
$var wire 1 r! inst7|inst11|inst2~feeder_combout $end
$var wire 1 s! inst7|inst11|inst2~q $end
$var wire 1 t! inst20|inst8|48~0_combout $end
$var wire 1 u! inst6|inst11|inst2~q $end
$var wire 1 v! inst5|inst11|inst2~feeder_combout $end
$var wire 1 w! inst5|inst11|inst2~q $end
$var wire 1 x! inst20|inst8|48~1_combout $end
$var wire 1 y! inst20|inst8|41~0_combout $end
$var wire 1 z! inst12|inst11|inst2~feeder_combout $end
$var wire 1 {! inst12|inst11|inst2~q $end
$var wire 1 |! inst11|inst11|inst2~feeder_combout $end
$var wire 1 }! inst11|inst11|inst2~q $end
$var wire 1 ~! inst13|inst11|inst2~q $end
$var wire 1 !" inst20|inst8|47~0_combout $end
$var wire 1 "" inst10|inst11|inst2~q $end
$var wire 1 #" inst20|inst8|47~1_combout $end
$var wire 1 $" inst20|inst8|47~2_combout $end
$var wire 1 %" inst20|inst8|41~1_combout $end
$var wire 1 &" data_in[3]~input_o $end
$var wire 1 '" inst7|inst10|inst2~q $end
$var wire 1 (" inst8|inst10|inst2~q $end
$var wire 1 )" inst20|inst|48~0_combout $end
$var wire 1 *" inst6|inst10|inst2~q $end
$var wire 1 +" inst5|inst10|inst2~feeder_combout $end
$var wire 1 ," inst5|inst10|inst2~q $end
$var wire 1 -" inst20|inst|48~1_combout $end
$var wire 1 ." inst3|inst10|inst2~q $end
$var wire 1 /" inst|inst10|inst2~q $end
$var wire 1 0" inst2|inst10|inst2~q $end
$var wire 1 1" inst4|inst10|inst2~q $end
$var wire 1 2" inst20|inst|49~0_combout $end
$var wire 1 3" inst20|inst|49~1_combout $end
$var wire 1 4" inst20|inst|41~0_combout $end
$var wire 1 5" inst12|inst10|inst2~q $end
$var wire 1 6" inst11|inst10|inst2~q $end
$var wire 1 7" inst13|inst10|inst2~q $end
$var wire 1 8" inst20|inst|47~0_combout $end
$var wire 1 9" inst10|inst10|inst2~q $end
$var wire 1 :" inst20|inst|47~1_combout $end
$var wire 1 ;" inst20|inst|47~2_combout $end
$var wire 1 <" inst16|inst10|inst2~q $end
$var wire 1 =" inst17|inst10|inst2~q $end
$var wire 1 >" inst20|inst|46~0_combout $end
$var wire 1 ?" inst14|inst10|inst2~q $end
$var wire 1 @" inst15|inst10|inst2~q $end
$var wire 1 A" inst20|inst|46~1_combout $end
$var wire 1 B" inst20|inst|41~1_combout $end
$var wire 1 C" data_in[2]~input_o $end
$var wire 1 D" inst3|inst9|inst2~q $end
$var wire 1 E" inst|inst9|inst2~q $end
$var wire 1 F" inst2|inst9|inst2~feeder_combout $end
$var wire 1 G" inst2|inst9|inst2~q $end
$var wire 1 H" inst4|inst9|inst2~q $end
$var wire 1 I" inst20|inst2|49~0_combout $end
$var wire 1 J" inst20|inst2|49~1_combout $end
$var wire 1 K" inst7|inst9|inst2~feeder_combout $end
$var wire 1 L" inst7|inst9|inst2~q $end
$var wire 1 M" inst8|inst9|inst2~q $end
$var wire 1 N" inst20|inst2|48~0_combout $end
$var wire 1 O" inst6|inst9|inst2~q $end
$var wire 1 P" inst5|inst9|inst2~feeder_combout $end
$var wire 1 Q" inst5|inst9|inst2~q $end
$var wire 1 R" inst20|inst2|48~1_combout $end
$var wire 1 S" inst20|inst2|41~0_combout $end
$var wire 1 T" inst16|inst9|inst2~feeder_combout $end
$var wire 1 U" inst16|inst9|inst2~q $end
$var wire 1 V" inst17|inst9|inst2~q $end
$var wire 1 W" inst20|inst2|46~0_combout $end
$var wire 1 X" inst14|inst9|inst2~q $end
$var wire 1 Y" inst15|inst9|inst2~feeder_combout $end
$var wire 1 Z" inst15|inst9|inst2~q $end
$var wire 1 [" inst20|inst2|46~1_combout $end
$var wire 1 \" inst12|inst9|inst2~q $end
$var wire 1 ]" inst11|inst9|inst2~q $end
$var wire 1 ^" inst13|inst9|inst2~q $end
$var wire 1 _" inst20|inst2|47~0_combout $end
$var wire 1 `" inst10|inst9|inst2~q $end
$var wire 1 a" inst20|inst2|47~1_combout $end
$var wire 1 b" inst20|inst2|47~2_combout $end
$var wire 1 c" inst20|inst2|41~1_combout $end
$var wire 1 d" data_in[1]~input_o $end
$var wire 1 e" inst15|inst8|inst2~feeder_combout $end
$var wire 1 f" inst15|inst8|inst2~q $end
$var wire 1 g" inst14|inst8|inst2~q $end
$var wire 1 h" inst16|inst8|inst2~feeder_combout $end
$var wire 1 i" inst16|inst8|inst2~q $end
$var wire 1 j" inst17|inst8|inst2~q $end
$var wire 1 k" inst20|inst3|46~0_combout $end
$var wire 1 l" inst20|inst3|46~1_combout $end
$var wire 1 m" inst8|inst8|inst2~q $end
$var wire 1 n" inst7|inst8|inst2~q $end
$var wire 1 o" inst20|inst3|48~0_combout $end
$var wire 1 p" inst6|inst8|inst2~q $end
$var wire 1 q" inst5|inst8|inst2~feeder_combout $end
$var wire 1 r" inst5|inst8|inst2~q $end
$var wire 1 s" inst20|inst3|48~1_combout $end
$var wire 1 t" inst3|inst8|inst2~feeder_combout $end
$var wire 1 u" inst3|inst8|inst2~q $end
$var wire 1 v" inst|inst8|inst2~q $end
$var wire 1 w" inst2|inst8|inst2~q $end
$var wire 1 x" inst4|inst8|inst2~q $end
$var wire 1 y" inst20|inst3|49~0_combout $end
$var wire 1 z" inst20|inst3|49~1_combout $end
$var wire 1 {" inst20|inst3|41~0_combout $end
$var wire 1 |" inst12|inst8|inst2~q $end
$var wire 1 }" inst10|inst8|inst2~q $end
$var wire 1 ~" inst11|inst8|inst2~feeder_combout $end
$var wire 1 !# inst11|inst8|inst2~q $end
$var wire 1 "# inst13|inst8|inst2~q $end
$var wire 1 ## inst20|inst3|47~0_combout $end
$var wire 1 $# inst20|inst3|47~1_combout $end
$var wire 1 %# inst20|inst3|47~2_combout $end
$var wire 1 &# inst20|inst3|41~1_combout $end
$var wire 1 '# data_in[0]~input_o $end
$var wire 1 (# inst15|inst|inst2~feeder_combout $end
$var wire 1 )# inst15|inst|inst2~q $end
$var wire 1 *# inst14|inst|inst2~q $end
$var wire 1 +# inst16|inst|inst2~feeder_combout $end
$var wire 1 ,# inst16|inst|inst2~q $end
$var wire 1 -# inst17|inst|inst2~q $end
$var wire 1 .# inst20|inst4|46~0_combout $end
$var wire 1 /# inst20|inst4|46~1_combout $end
$var wire 1 0# inst7|inst|inst2~q $end
$var wire 1 1# inst8|inst|inst2~q $end
$var wire 1 2# inst20|inst4|48~0_combout $end
$var wire 1 3# inst6|inst|inst2~q $end
$var wire 1 4# inst5|inst|inst2~feeder_combout $end
$var wire 1 5# inst5|inst|inst2~q $end
$var wire 1 6# inst20|inst4|48~1_combout $end
$var wire 1 7# inst3|inst|inst2~q $end
$var wire 1 8# inst2|inst|inst2~feeder_combout $end
$var wire 1 9# inst2|inst|inst2~q $end
$var wire 1 :# inst4|inst|inst2~q $end
$var wire 1 ;# inst20|inst4|49~0_combout $end
$var wire 1 <# inst|inst|inst2~q $end
$var wire 1 =# inst20|inst4|49~1_combout $end
$var wire 1 ># inst20|inst4|41~0_combout $end
$var wire 1 ?# inst12|inst|inst2~q $end
$var wire 1 @# inst11|inst|inst2~q $end
$var wire 1 A# inst13|inst|inst2~q $end
$var wire 1 B# inst20|inst4|47~0_combout $end
$var wire 1 C# inst10|inst|inst2~q $end
$var wire 1 D# inst20|inst4|47~1_combout $end
$var wire 1 E# inst20|inst4|47~2_combout $end
$var wire 1 F# inst20|inst4|41~1_combout $end
$upscope $end
$upscope $end
$enddefinitions $end
#0
$dumpvars
0!
0"
0#
0$
0%
b1 &
1'
1(
00
0/
0.
0-
0,
0+
0*
0)
x1
02
13
x4
15
16
17
08
09
0:
0;
0<
0=
0>
0?
0@
0A
0B
0C
0D
0E
0F
0G
1H
0I
0J
0K
0L
0M
0N
0O
0P
0Q
0R
0S
0T
1U
0V
0W
1X
0Y
0Z
0[
0\
0]
0^
0_
1`
0a
0b
0c
1d
0e
0f
0g
0h
0i
0j
0k
0l
0m
0n
0o
0p
0q
0r
0s
0t
0u
0v
0w
0x
0y
0z
0{
0|
0}
0~
0!!
0"!
0#!
0$!
0%!
0&!
0'!
0(!
0)!
0*!
0+!
0,!
0-!
0.!
0/!
00!
01!
02!
03!
04!
05!
06!
07!
08!
09!
0:!
0;!
0<!
0=!
0>!
0?!
0@!
0A!
0B!
0C!
0D!
0E!
0F!
0G!
0H!
0I!
0J!
0K!
0L!
0M!
0N!
0O!
0P!
0Q!
0R!
0S!
0T!
0U!
0V!
0W!
0X!
0Y!
0Z!
0[!
0\!
0]!
0^!
0_!
0`!
0a!
0b!
0c!
0d!
0e!
0f!
0g!
0h!
0i!
0j!
0k!
0l!
0m!
0n!
0o!
0p!
0q!
0r!
0s!
0t!
0u!
0v!
0w!
0x!
0y!
0z!
0{!
0|!
0}!
0~!
0!"
0""
0#"
0$"
0%"
0&"
0'"
0("
0)"
0*"
0+"
0,"
0-"
0."
0/"
00"
01"
02"
03"
04"
05"
06"
07"
08"
09"
0:"
0;"
0<"
0="
0>"
0?"
0@"
0A"
0B"
0C"
0D"
0E"
0F"
0G"
0H"
0I"
0J"
0K"
0L"
0M"
0N"
0O"
0P"
0Q"
0R"
0S"
0T"
0U"
0V"
0W"
0X"
0Y"
0Z"
0["
0\"
0]"
0^"
0_"
0`"
0a"
0b"
0c"
0d"
0e"
0f"
0g"
0h"
0i"
0j"
0k"
0l"
0m"
0n"
0o"
0p"
0q"
0r"
0s"
0t"
0u"
0v"
0w"
0x"
0y"
0z"
0{"
0|"
0}"
0~"
0!#
0"#
0##
0$#
0%#
0&#
1'#
1(#
0)#
0*#
1+#
0,#
0-#
0.#
0/#
00#
01#
02#
03#
14#
05#
06#
07#
18#
09#
0:#
0;#
0<#
0=#
0>#
0?#
0@#
0A#
0B#
0C#
0D#
0E#
0F#
$end
#10000
1%
1A
1B
01
1:#
1;#
1=#
1>#
1F#
1?
10
#20000
1!
0(
0%
1F
0H
0A
0B
11
0=#
0;#
0`
0>#
0F#
0?
00
#30000
1%
1A
1B
01
#40000
1"
0!
0%
1@
0F
0A
0B
11
1[
0X
#50000
1%
1A
1B
01
#60000
1!
0%
1F
0A
0B
11
1B#
1;#
12#
1.#
1##
1y"
1o"
1k"
1_"
1W"
1N"
1I"
1>"
18"
12"
1)"
1!"
1t!
1m!
1i!
1`!
1U!
1M!
1I!
1?!
18!
1/!
1(!
1|
1k
1b
1M
#70000
1%
1A
1B
01
#80000
1#
0"
0!
0%
1D
0@
0F
0A
0B
11
0d
0[
1V
1E
0B#
16#
02#
1/#
0.#
0##
0y"
1s"
0o"
1l"
0k"
0_"
1["
0W"
1R"
0N"
0I"
1A"
0>"
08"
02"
1-"
0)"
0!"
1x!
0t!
0m!
1j!
0i!
1a!
0`!
0U!
1P!
0M!
0I!
1@!
0?!
08!
13!
0/!
0(!
1}
0|
0k
0b
1T
0M
1D#
1=#
1$#
1z"
1a"
1J"
1:"
13"
1#"
1p!
1Y!
1J!
19!
1*!
1q
1c
1>#
1{"
1S"
14"
1y!
1Q!
1:!
1e
0D#
06#
0/#
0$#
0z"
0s"
0l"
0a"
0["
0R"
0J"
0A"
0:"
03"
0-"
0#"
0x!
0p!
0j!
0a!
0Y!
0P!
0J!
0@!
09!
03!
0*!
0}
0q
0c
0T
0>#
0{"
0S"
04"
0y!
0Q!
0:!
0e
1F#
1&#
1c"
1B"
1%"
1b!
1A!
1!!
1?
1>
1=
1<
1;
1:
19
18
10
1/
1.
1-
1,
1+
1*
1)
0F#
0&#
0c"
0B"
0%"
0b!
0A!
0!!
0?
0>
0=
0<
0;
0:
09
08
00
0/
0.
0-
0,
0+
0*
0)
#90000
1%
1A
1B
01
#100000
1!
0%
1F
0A
0B
11
0=#
0;#
#110000
1%
1A
1B
01
#120000
1"
0!
0%
1@
0F
0A
0B
11
1N
0E
#130000
1%
1A
1B
01
#140000
1!
0%
1F
0A
0B
11
1B#
1;#
12#
1.#
1##
1y"
1o"
1k"
1_"
1W"
1N"
1I"
1>"
18"
12"
1)"
1!"
1t!
1m!
1i!
1`!
1U!
1M!
1I!
1?!
18!
1/!
1(!
1|
1k
1b
1M
#150000
1%
1A
1B
01
#160000
1$
0#
0"
0!
0%
1G
0D
0@
0F
0A
0B
11
0V
1X
0N
0B#
16#
02#
1/#
0.#
0##
0y"
1s"
0o"
1l"
0k"
0_"
1["
0W"
1R"
0N"
0I"
1A"
0>"
08"
02"
1-"
0)"
0!"
1x!
0t!
0m!
1j!
0i!
1a!
0`!
0U!
1P!
0M!
0I!
1@!
0?!
08!
13!
0/!
0(!
1}
0|
0k
0b
1T
0M
1D#
1=#
1$#
1z"
1a"
1J"
1:"
13"
1#"
1p!
1Y!
1J!
19!
1*!
1q
1c
0D#
06#
0/#
0$#
0z"
0s"
0l"
0a"
0["
0R"
0J"
0A"
0:"
03"
0-"
0#"
0x!
0p!
0j!
0a!
0Y!
0P!
0J!
0@!
09!
03!
0*!
0}
0q
0c
0T
1E#
1%#
1b"
1;"
1$"
1Z!
1+!
1r
0E#
0%#
0b"
0;"
0$"
0Z!
0+!
0r
1F#
1&#
1c"
1B"
1%"
1b!
1A!
1!!
1?
1>
1=
1<
1;
1:
19
18
10
1/
1.
1-
1,
1+
1*
1)
0F#
0&#
0c"
0B"
0%"
0b!
0A!
0!!
0?
0>
0=
0<
0;
0:
09
08
00
0/
0.
0-
0,
0+
0*
0)
#170000
1%
1A
1B
01
#180000
1!
0%
1F
0A
0B
11
0=#
0;#
#190000
1%
1A
1B
01
#200000
1"
0!
0%
1@
0F
0A
0B
11
1[
0X
#210000
1%
1A
1B
01
#220000
1!
0%
1F
0A
0B
11
1B#
1;#
12#
1.#
1##
1y"
1o"
1k"
1_"
1W"
1N"
1I"
1>"
18"
12"
1)"
1!"
1t!
1m!
1i!
1`!
1U!
1M!
1I!
1?!
18!
1/!
1(!
1|
1k
1b
1M
#230000
1%
1A
1B
01
#240000
b10000001 &
b11000001 &
b11100001 &
b11110001 &
b11111001 &
b11111101 &
b11111111 &
1#
0"
0!
0%
1d"
1C"
1&"
1c!
1B!
1"!
1C
1D
0@
0F
0A
0B
11
1~"
1t"
1q"
1h"
1e"
1Y"
1T"
1P"
1K"
1F"
1+"
1|!
1z!
1v!
1r!
1d!
1[!
1W!
1R!
1G!
1C!
11!
1-!
1%!
1#!
1w
1l
1f
1W
1Q
1~
0[
1E
0B#
16#
02#
1/#
0.#
0##
0y"
1s"
0o"
1l"
0k"
0_"
1["
0W"
1R"
0N"
0I"
1A"
0>"
08"
02"
1-"
0)"
0!"
1x!
0t!
0m!
1j!
0i!
1a!
0`!
0U!
1P!
0M!
0I!
1@!
0?!
08!
13!
0/!
0(!
1}
0|
0k
0b
1T
0M
1D#
1=#
1$#
1z"
1a"
1J"
1:"
13"
1#"
1p!
1Y!
1J!
19!
1*!
1q
1c
0D#
06#
0/#
0$#
0z"
0s"
0l"
0a"
0["
0R"
0J"
0A"
0:"
03"
0-"
0#"
0x!
0p!
0j!
0a!
0Y!
0P!
0J!
0@!
09!
03!
0*!
0}
0q
0c
0T
1F#
1&#
1c"
1B"
1%"
1b!
1A!
1!!
1?
1>
1=
1<
1;
1:
19
18
10
1/
1.
1-
1,
1+
1*
1)
0F#
0&#
0c"
0B"
0%"
0b!
0A!
0!!
0?
0>
0=
0<
0;
0:
09
08
00
0/
0.
0-
0,
0+
0*
0)
#250000
1%
1A
1B
01
#260000
1!
0%
1F
0A
0B
11
0=#
0;#
#270000
1%
1A
1B
01
#280000
1"
0!
0%
1@
0F
0A
0B
11
1N
0E
#290000
1%
1A
1B
01
#300000
1(
1!
0%
1H
1F
0A
0B
11
1u
1B#
1;#
12#
1.#
1##
1y"
1o"
1k"
1_"
1W"
1N"
1I"
1>"
18"
12"
1)"
1!"
1t!
1m!
1i!
1`!
1U!
1M!
1I!
1?!
18!
1/!
1(!
1|
1k
1b
1M
#310000
1%
1A
1B
01
1*#
1g"
1X"
1?"
1f!
1]!
1<!
1v
1/#
1l"
1["
1A"
1j!
1a!
1@!
1}
1F#
1&#
1c"
1B"
1%"
1b!
1A!
1!!
1?
1>
1=
1<
1;
1:
19
18
10
1/
1.
1-
1,
1+
1*
1)
#320000
0$
0#
0"
0(
0!
0%
0G
0D
0@
0H
0F
0A
0B
11
0~
0u
1d
1X
0N
0B#
16#
02#
0.#
0##
0y"
1s"
0o"
0k"
0_"
0W"
1R"
0N"
0I"
0>"
08"
02"
1-"
0)"
0!"
1x!
0t!
0m!
0i!
0`!
0U!
1P!
0M!
0I!
0?!
08!
13!
0/!
0(!
0|
0k
0b
1T
0M
1D#
1=#
1$#
1z"
1a"
1J"
1:"
13"
1#"
1p!
1Y!
1J!
19!
1*!
1q
1c
1>#
1{"
1S"
14"
1y!
1Q!
1:!
1e
0D#
06#
0/#
0$#
0z"
0s"
0l"
0a"
0["
0R"
0J"
0A"
0:"
03"
0-"
0#"
0x!
0p!
0j!
0a!
0Y!
0P!
0J!
0@!
09!
03!
0*!
0}
0q
0c
0T
0F#
0&#
0c"
0B"
0%"
0b!
0A!
0!!
0{"
0S"
04"
0y!
0Q!
0:!
0e
0?
0>
0=
0<
0;
0:
09
08
00
0/
0.
0-
0,
0+
0*
0)
1F#
1&#
1c"
1B"
1%"
1b!
1A!
1!!
1?
1>
1=
1<
1;
1:
19
18
10
1/
1.
1-
1,
1+
1*
1)
0&#
0c"
0B"
0%"
0b!
0A!
0!!
0>
0=
0<
0;
0:
09
08
0/
0.
0-
0,
0+
0*
0)
#330000
1%
1A
1B
01
#340000
1!
0%
1F
0A
0B
11
0=#
0;#
0>#
0F#
0?
00
#350000
1%
1A
1B
01
#360000
1"
0!
0%
1@
0F
0A
0B
11
1[
0X
#370000
1%
1A
1B
01
#380000
1!
0%
1F
0A
0B
11
1B#
1;#
12#
1.#
1##
1y"
1o"
1k"
1_"
1W"
1N"
1I"
1>"
18"
12"
1)"
1!"
1t!
1m!
1i!
1`!
1U!
1M!
1I!
1?!
18!
1/!
1(!
1|
1k
1b
1M
1/#
1l"
1["
1A"
1j!
1a!
1@!
1}
#390000
1%
1A
1B
01
#400000
1#
0"
0!
0%
1D
0@
0F
0A
0B
11
0d
0[
1V
1E
0B#
16#
02#
0.#
0##
0y"
1s"
0o"
0k"
0_"
0W"
1R"
0N"
0I"
0>"
08"
02"
1-"
0)"
0!"
1x!
0t!
0m!
0i!
0`!
0U!
1P!
0M!
0I!
0?!
08!
13!
0/!
0(!
0|
0k
0b
1T
0M
1D#
1=#
1$#
1z"
1a"
1J"
1:"
13"
1#"
1p!
1Y!
1J!
19!
1*!
1q
1c
1>#
1{"
1S"
14"
1y!
1Q!
1:!
1e
0D#
06#
0/#
0$#
0z"
0s"
0l"
0a"
0["
0R"
0J"
0A"
0:"
03"
0-"
0#"
0x!
0p!
0j!
0a!
0Y!
0P!
0J!
0@!
09!
03!
0*!
0}
0q
0c
0T
0>#
0{"
0S"
04"
0y!
0Q!
0:!
0e
1F#
1&#
1c"
1B"
1%"
1b!
1A!
1!!
1?
1>
1=
1<
1;
1:
19
18
10
1/
1.
1-
1,
1+
1*
1)
0F#
0&#
0c"
0B"
0%"
0b!
0A!
0!!
0?
0>
0=
0<
0;
0:
09
08
00
0/
0.
0-
0,
0+
0*
0)
#410000
1%
1A
1B
01
#420000
1!
0%
1F
0A
0B
11
0=#
0;#
#430000
1%
1A
1B
01
#440000
1"
0!
0%
1@
0F
0A
0B
11
1N
0E
#450000
1%
1A
1B
01
#460000
1!
0%
1F
0A
0B
11
1B#
1;#
12#
1.#
1##
1y"
1o"
1k"
1_"
1W"
1N"
1I"
1>"
18"
12"
1)"
1!"
1t!
1m!
1i!
1`!
1U!
1M!
1I!
1?!
18!
1/!
1(!
1|
1k
1b
1M
1/#
1l"
1["
1A"
1j!
1a!
1@!
1}
#470000
1%
1A
1B
01
#480000
1$
0#
0"
0!
0%
1G
0D
0@
0F
0A
0B
11
0V
1X
0N
0B#
16#
02#
0.#
0##
0y"
1s"
0o"
0k"
0_"
0W"
1R"
0N"
0I"
0>"
08"
02"
1-"
0)"
0!"
1x!
0t!
0m!
0i!
0`!
0U!
1P!
0M!
0I!
0?!
08!
13!
0/!
0(!
0|
0k
0b
1T
0M
1D#
1=#
1$#
1z"
1a"
1J"
1:"
13"
1#"
1p!
1Y!
1J!
19!
1*!
1q
1c
0D#
06#
0/#
0$#
0z"
0s"
0l"
0a"
0["
0R"
0J"
0A"
0:"
03"
0-"
0#"
0x!
0p!
0j!
0a!
0Y!
0P!
0J!
0@!
09!
03!
0*!
0}
0q
0c
0T
1E#
1%#
1b"
1;"
1$"
1Z!
1+!
1r
0E#
0%#
0b"
0;"
0$"
0Z!
0+!
0r
1F#
1&#
1c"
1B"
1%"
1b!
1A!
1!!
1?
1>
1=
1<
1;
1:
19
18
10
1/
1.
1-
1,
1+
1*
1)
0F#
0&#
0c"
0B"
0%"
0b!
0A!
0!!
0?
0>
0=
0<
0;
0:
09
08
00
0/
0.
0-
0,
0+
0*
0)
#490000
1%
1A
1B
01
#500000
1!
0%
1F
0A
0B
11
0=#
0;#
#510000
1%
1A
1B
01
