simulation/qsim/trabalhofinalcd.msim.vcd
$comment
	File created using the following command:
		vcd file trabalhofinalcd.msim.vcd -direction
$end
$date
	Sat Apr 01 14:38:11 2023
$end
$version
	ModelSim Version 10.1d
$end
$timescale
	1ps
$end
$scope module trabalhofinal_vlg_vec_tst $end
$var reg 1 ! clk $end
$var reg 1 " confirm_address $end
$var reg 1 # confirm_data $end
$var reg 1 $ read $end
$var reg 1 % sw0 $end
$var reg 1 & sw1 $end
$var reg 1 ' sw2 $end
$var reg 1 ( sw3 $end
$var reg 1 ) sw4 $end
$var reg 1 * sw5 $end
$var reg 1 + sw6 $end
$var reg 1 , sw7 $end
$var reg 1 - sw8 $end
$var reg 1 . sw9 $end
$var reg 1 / write $end
$var wire 1 0 address_reg_out [7] $end
$var wire 1 1 address_reg_out [6] $end
$var wire 1 2 address_reg_out [5] $end
$var wire 1 3 address_reg_out [4] $end
$var wire 1 4 address_reg_out [3] $end
$var wire 1 5 address_reg_out [2] $end
$var wire 1 6 address_reg_out [1] $end
$var wire 1 7 address_reg_out [0] $end
$var wire 1 8 data_out [7] $end
$var wire 1 9 data_out [6] $end
$var wire 1 : data_out [5] $end
$var wire 1 ; data_out [4] $end
$var wire 1 < data_out [3] $end
$var wire 1 = data_out [2] $end
$var wire 1 > data_out [1] $end
$var wire 1 ? data_out [0] $end
$var wire 1 @ data_reg_out [7] $end
$var wire 1 A data_reg_out [6] $end
$var wire 1 B data_reg_out [5] $end
$var wire 1 C data_reg_out [4] $end
$var wire 1 D data_reg_out [3] $end
$var wire 1 E data_reg_out [2] $end
$var wire 1 F data_reg_out [1] $end
$var wire 1 G data_reg_out [0] $end
$var wire 1 H morte [7] $end
$var wire 1 I morte [6] $end
$var wire 1 J morte [5] $end
$var wire 1 K morte [4] $end
$var wire 1 L morte [3] $end
$var wire 1 M morte [2] $end
$var wire 1 N morte [1] $end
$var wire 1 O morte [0] $end
$var wire 1 P sampler $end
$scope module i1 $end
$var wire 1 Q gnd $end
$var wire 1 R vcc $end
$var wire 1 S unknown $end
$var tri1 1 T devclrn $end
$var tri1 1 U devpor $end
$var tri1 1 V devoe $end
$var wire 1 W address_reg_out[7]~output_o $end
$var wire 1 X address_reg_out[6]~output_o $end
$var wire 1 Y address_reg_out[5]~output_o $end
$var wire 1 Z address_reg_out[4]~output_o $end
$var wire 1 [ address_reg_out[3]~output_o $end
$var wire 1 \ address_reg_out[2]~output_o $end
$var wire 1 ] address_reg_out[1]~output_o $end
$var wire 1 ^ address_reg_out[0]~output_o $end
$var wire 1 _ data_out[7]~output_o $end
$var wire 1 ` data_out[6]~output_o $end
$var wire 1 a data_out[5]~output_o $end
$var wire 1 b data_out[4]~output_o $end
$var wire 1 c data_out[3]~output_o $end
$var wire 1 d data_out[2]~output_o $end
$var wire 1 e data_out[1]~output_o $end
$var wire 1 f data_out[0]~output_o $end
$var wire 1 g data_reg_out[7]~output_o $end
$var wire 1 h data_reg_out[6]~output_o $end
$var wire 1 i data_reg_out[5]~output_o $end
$var wire 1 j data_reg_out[4]~output_o $end
$var wire 1 k data_reg_out[3]~output_o $end
$var wire 1 l data_reg_out[2]~output_o $end
$var wire 1 m data_reg_out[1]~output_o $end
$var wire 1 n data_reg_out[0]~output_o $end
$var wire 1 o morte[7]~output_o $end
$var wire 1 p morte[6]~output_o $end
$var wire 1 q morte[5]~output_o $end
$var wire 1 r morte[4]~output_o $end
$var wire 1 s morte[3]~output_o $end
$var wire 1 t morte[2]~output_o $end
$var wire 1 u morte[1]~output_o $end
$var wire 1 v morte[0]~output_o $end
$var wire 1 w clk~input_o $end
$var wire 1 x clk~inputclkctrl_outclk $end
$var wire 1 y sw7~input_o $end
$var wire 1 z confirm_address~input_o $end
$var wire 1 { sw8~input_o $end
$var wire 1 | sw9~input_o $end
$var wire 1 } ADDRESS_REG|inst14|inst1|5~0_combout $end
$var wire 1 ~ ADDRESS_REG|inst14|inst2~q $end
$var wire 1 !! sw6~input_o $end
$var wire 1 "! ADDRESS_REG|inst13|inst2~feeder_combout $end
$var wire 1 #! ADDRESS_REG|inst13|inst2~q $end
$var wire 1 $! sw5~input_o $end
$var wire 1 %! ADDRESS_REG|inst12|inst2~feeder_combout $end
$var wire 1 &! ADDRESS_REG|inst12|inst2~q $end
$var wire 1 '! sw4~input_o $end
$var wire 1 (! ADDRESS_REG|inst11|inst2~feeder_combout $end
$var wire 1 )! ADDRESS_REG|inst11|inst2~q $end
$var wire 1 *! sw3~input_o $end
$var wire 1 +! ADDRESS_REG|inst10|inst2~q $end
$var wire 1 ,! sw2~input_o $end
$var wire 1 -! ADDRESS_REG|inst9|inst2~q $end
$var wire 1 .! sw1~input_o $end
$var wire 1 /! ADDRESS_REG|inst8|inst2~q $end
$var wire 1 0! sw0~input_o $end
$var wire 1 1! ADDRESS_REG|inst|inst2~q $end
$var wire 1 2! confirm_data~input_o $end
$var wire 1 3! DATA_REG|inst14|inst1|5~0_combout $end
$var wire 1 4! DATA_REG|inst14|inst2~q $end
$var wire 1 5! inst|inst14|inst14|inst2~feeder_combout $end
$var wire 1 6! write~input_o $end
$var wire 1 7! inst|inst18|inst17|inst8~0_combout $end
$var wire 1 8! inst|inst18|inst17|inst~0_combout $end
$var wire 1 9! inst|inst14|inst14|inst2~q $end
$var wire 1 :! inst|inst15|inst14|inst2~feeder_combout $end
$var wire 1 ;! inst|inst18|inst17|inst6~0_combout $end
$var wire 1 <! inst|inst15|inst14|inst2~q $end
$var wire 1 =! inst|inst16|inst14|inst2~feeder_combout $end
$var wire 1 >! inst|inst18|inst17|inst7~0_combout $end
$var wire 1 ?! inst|inst16|inst14|inst2~q $end
$var wire 1 @! inst|inst18|inst17|inst8~1_combout $end
$var wire 1 A! inst|inst17|inst14|inst2~q $end
$var wire 1 B! inst|inst20|inst6|41~7_combout $end
$var wire 1 C! inst|inst20|inst6|41~8_combout $end
$var wire 1 D! inst|inst10|inst14|inst2~feeder_combout $end
$var wire 1 E! inst|inst18|inst16|inst8~0_combout $end
$var wire 1 F! inst|inst18|inst16|inst~0_combout $end
$var wire 1 G! inst|inst10|inst14|inst2~q $end
$var wire 1 H! inst|inst18|inst16|inst7~0_combout $end
$var wire 1 I! inst|inst12|inst14|inst2~q $end
$var wire 1 J! inst|inst11|inst14|inst2~feeder_combout $end
$var wire 1 K! inst|inst18|inst16|inst6~0_combout $end
$var wire 1 L! inst|inst11|inst14|inst2~q $end
$var wire 1 M! inst|inst18|inst16|inst8~1_combout $end
$var wire 1 N! inst|inst13|inst14|inst2~q $end
$var wire 1 O! inst|inst20|inst6|41~0_combout $end
$var wire 1 P! inst|inst20|inst6|41~1_combout $end
$var wire 1 Q! inst|inst3|inst14|inst2~feeder_combout $end
$var wire 1 R! inst|inst18|inst13|inst8~0_combout $end
$var wire 1 S! inst|inst18|inst13|inst7~0_combout $end
$var wire 1 T! inst|inst3|inst14|inst2~q $end
$var wire 1 U! inst|inst18|inst13|inst~0_combout $end
$var wire 1 V! inst|inst|inst14|inst2~q $end
$var wire 1 W! inst|inst2|inst14|inst2~feeder_combout $end
$var wire 1 X! inst|inst18|inst13|inst6~0_combout $end
$var wire 1 Y! inst|inst2|inst14|inst2~q $end
$var wire 1 Z! inst|inst18|inst13|inst8~1_combout $end
$var wire 1 [! inst|inst18|inst13|inst8~2_combout $end
$var wire 1 \! inst|inst4|inst14|inst2~q $end
$var wire 1 ]! inst|inst20|inst6|41~4_combout $end
$var wire 1 ^! inst|inst20|inst6|41~5_combout $end
$var wire 1 _! inst|inst6|inst14|inst2~feeder_combout $end
$var wire 1 `! inst|inst18|inst15|inst8~0_combout $end
$var wire 1 a! inst|inst18|inst15|inst~0_combout $end
$var wire 1 b! inst|inst6|inst14|inst2~q $end
$var wire 1 c! inst|inst5|inst14|inst2~feeder_combout $end
$var wire 1 d! inst|inst18|inst15|inst6~0_combout $end
$var wire 1 e! inst|inst5|inst14|inst2~q $end
$var wire 1 f! inst|inst7|inst14|inst2~feeder_combout $end
$var wire 1 g! inst|inst18|inst15|inst7~0_combout $end
$var wire 1 h! inst|inst7|inst14|inst2~q $end
$var wire 1 i! inst|inst18|inst15|inst8~1_combout $end
$var wire 1 j! inst|inst8|inst14|inst2~q $end
$var wire 1 k! inst|inst20|inst6|41~2_combout $end
$var wire 1 l! inst|inst20|inst6|41~3_combout $end
$var wire 1 m! inst|inst20|inst6|41~6_combout $end
$var wire 1 n! inst|inst20|inst6|41~9_combout $end
$var wire 1 o! read~input_o $end
$var wire 1 p! DATA_OUT_REG|inst14|inst2~q $end
$var wire 1 q! DATA_REG|inst13|inst2~feeder_combout $end
$var wire 1 r! DATA_REG|inst13|inst2~q $end
$var wire 1 s! inst|inst7|inst13|inst2~feeder_combout $end
$var wire 1 t! inst|inst7|inst13|inst2~q $end
$var wire 1 u! inst|inst16|inst13|inst2~feeder_combout $end
$var wire 1 v! inst|inst16|inst13|inst2~q $end
$var wire 1 w! inst|inst12|inst13|inst2~feeder_combout $end
$var wire 1 x! inst|inst12|inst13|inst2~q $end
$var wire 1 y! inst|inst3|inst13|inst2~q $end
$var wire 1 z! inst|inst20|inst5|41~0_combout $end
$var wire 1 {! inst|inst20|inst5|41~1_combout $end
$var wire 1 |! inst|inst10|inst13|inst2~feeder_combout $end
$var wire 1 }! inst|inst10|inst13|inst2~q $end
$var wire 1 ~! inst|inst14|inst13|inst2~q $end
$var wire 1 !" inst|inst6|inst13|inst2~feeder_combout $end
$var wire 1 "" inst|inst6|inst13|inst2~q $end
$var wire 1 #" inst|inst|inst13|inst2~q $end
$var wire 1 $" inst|inst20|inst5|41~7_combout $end
$var wire 1 %" inst|inst20|inst5|41~8_combout $end
$var wire 1 &" inst|inst8|inst13|inst2~feeder_combout $end
$var wire 1 '" inst|inst8|inst13|inst2~q $end
$var wire 1 (" inst|inst17|inst13|inst2~q $end
$var wire 1 )" inst|inst13|inst13|inst2~feeder_combout $end
$var wire 1 *" inst|inst13|inst13|inst2~q $end
$var wire 1 +" inst|inst4|inst13|inst2~q $end
$var wire 1 ," inst|inst20|inst5|41~4_combout $end
$var wire 1 -" inst|inst20|inst5|41~5_combout $end
$var wire 1 ." inst|inst11|inst13|inst2~feeder_combout $end
$var wire 1 /" inst|inst11|inst13|inst2~q $end
$var wire 1 0" inst|inst15|inst13|inst2~q $end
$var wire 1 1" inst|inst5|inst13|inst2~feeder_combout $end
$var wire 1 2" inst|inst5|inst13|inst2~q $end
$var wire 1 3" inst|inst2|inst13|inst2~q $end
$var wire 1 4" inst|inst20|inst5|41~2_combout $end
$var wire 1 5" inst|inst20|inst5|41~3_combout $end
$var wire 1 6" inst|inst20|inst5|41~6_combout $end
$var wire 1 7" inst|inst20|inst5|41~9_combout $end
$var wire 1 8" DATA_OUT_REG|inst13|inst2~q $end
$var wire 1 9" DATA_REG|inst12|inst2~feeder_combout $end
$var wire 1 :" DATA_REG|inst12|inst2~q $end
$var wire 1 ;" inst|inst6|inst12|inst2~feeder_combout $end
$var wire 1 <" inst|inst6|inst12|inst2~q $end
$var wire 1 =" inst|inst7|inst12|inst2~q $end
$var wire 1 >" inst|inst5|inst12|inst2~feeder_combout $end
$var wire 1 ?" inst|inst5|inst12|inst2~q $end
$var wire 1 @" inst|inst8|inst12|inst2~q $end
$var wire 1 A" inst|inst20|inst7|41~0_combout $end
$var wire 1 B" inst|inst20|inst7|41~1_combout $end
$var wire 1 C" inst|inst16|inst12|inst2~feeder_combout $end
$var wire 1 D" inst|inst16|inst12|inst2~q $end
$var wire 1 E" inst|inst14|inst12|inst2~feeder_combout $end
$var wire 1 F" inst|inst14|inst12|inst2~q $end
$var wire 1 G" inst|inst17|inst12|inst2~q $end
$var wire 1 H" inst|inst15|inst12|inst2~feeder_combout $end
$var wire 1 I" inst|inst15|inst12|inst2~q $end
$var wire 1 J" inst|inst20|inst7|41~7_combout $end
$var wire 1 K" inst|inst20|inst7|41~8_combout $end
$var wire 1 L" inst|inst|inst12|inst2~feeder_combout $end
$var wire 1 M" inst|inst|inst12|inst2~q $end
$var wire 1 N" inst|inst2|inst12|inst2~feeder_combout $end
$var wire 1 O" inst|inst2|inst12|inst2~q $end
$var wire 1 P" inst|inst3|inst12|inst2~feeder_combout $end
$var wire 1 Q" inst|inst3|inst12|inst2~q $end
$var wire 1 R" inst|inst4|inst12|inst2~q $end
$var wire 1 S" inst|inst20|inst7|41~4_combout $end
$var wire 1 T" inst|inst20|inst7|41~5_combout $end
$var wire 1 U" inst|inst11|inst12|inst2~feeder_combout $end
$var wire 1 V" inst|inst11|inst12|inst2~q $end
$var wire 1 W" inst|inst10|inst12|inst2~q $end
$var wire 1 X" inst|inst12|inst12|inst2~feeder_combout $end
$var wire 1 Y" inst|inst12|inst12|inst2~q $end
$var wire 1 Z" inst|inst13|inst12|inst2~q $end
$var wire 1 [" inst|inst20|inst7|41~2_combout $end
$var wire 1 \" inst|inst20|inst7|41~3_combout $end
$var wire 1 ]" inst|inst20|inst7|41~6_combout $end
$var wire 1 ^" inst|inst20|inst7|41~9_combout $end
$var wire 1 _" DATA_OUT_REG|inst12|inst2~q $end
$var wire 1 `" DATA_REG|inst11|inst2~feeder_combout $end
$var wire 1 a" DATA_REG|inst11|inst2~q $end
$var wire 1 b" inst|inst6|inst11|inst2~feeder_combout $end
$var wire 1 c" inst|inst6|inst11|inst2~q $end
$var wire 1 d" inst|inst14|inst11|inst2~q $end
$var wire 1 e" inst|inst10|inst11|inst2~feeder_combout $end
$var wire 1 f" inst|inst10|inst11|inst2~q $end
$var wire 1 g" inst|inst|inst11|inst2~q $end
$var wire 1 h" inst|inst20|inst8|41~7_combout $end
$var wire 1 i" inst|inst20|inst8|41~8_combout $end
$var wire 1 j" inst|inst13|inst11|inst2~q $end
$var wire 1 k" inst|inst17|inst11|inst2~q $end
$var wire 1 l" inst|inst4|inst11|inst2~q $end
$var wire 1 m" inst|inst8|inst11|inst2~feeder_combout $end
$var wire 1 n" inst|inst8|inst11|inst2~q $end
$var wire 1 o" inst|inst20|inst8|41~4_combout $end
$var wire 1 p" inst|inst20|inst8|41~5_combout $end
$var wire 1 q" inst|inst12|inst11|inst2~feeder_combout $end
$var wire 1 r" inst|inst12|inst11|inst2~q $end
$var wire 1 s" inst|inst16|inst11|inst2~feeder_combout $end
$var wire 1 t" inst|inst16|inst11|inst2~q $end
$var wire 1 u" inst|inst7|inst11|inst2~feeder_combout $end
$var wire 1 v" inst|inst7|inst11|inst2~q $end
$var wire 1 w" inst|inst3|inst11|inst2~q $end
$var wire 1 x" inst|inst20|inst8|41~2_combout $end
$var wire 1 y" inst|inst20|inst8|41~3_combout $end
$var wire 1 z" inst|inst20|inst8|41~6_combout $end
$var wire 1 {" inst|inst15|inst11|inst2~feeder_combout $end
$var wire 1 |" inst|inst15|inst11|inst2~q $end
$var wire 1 }" inst|inst5|inst11|inst2~q $end
$var wire 1 ~" inst|inst11|inst11|inst2~feeder_combout $end
$var wire 1 !# inst|inst11|inst11|inst2~q $end
$var wire 1 "# inst|inst2|inst11|inst2~q $end
$var wire 1 ## inst|inst20|inst8|41~0_combout $end
$var wire 1 $# inst|inst20|inst8|41~1_combout $end
$var wire 1 %# inst|inst20|inst8|41~9_combout $end
$var wire 1 &# DATA_OUT_REG|inst11|inst2~q $end
$var wire 1 '# DATA_REG|inst10|inst2~feeder_combout $end
$var wire 1 (# DATA_REG|inst10|inst2~q $end
$var wire 1 )# inst|inst10|inst10|inst2~feeder_combout $end
$var wire 1 *# inst|inst10|inst10|inst2~q $end
$var wire 1 +# inst|inst12|inst10|inst2~q $end
$var wire 1 ,# inst|inst11|inst10|inst2~feeder_combout $end
$var wire 1 -# inst|inst11|inst10|inst2~q $end
$var wire 1 .# inst|inst13|inst10|inst2~q $end
$var wire 1 /# inst|inst20|inst|41~0_combout $end
$var wire 1 0# inst|inst20|inst|41~1_combout $end
$var wire 1 1# inst|inst15|inst10|inst2~feeder_combout $end
$var wire 1 2# inst|inst15|inst10|inst2~q $end
$var wire 1 3# inst|inst14|inst10|inst2~q $end
$var wire 1 4# inst|inst16|inst10|inst2~feeder_combout $end
$var wire 1 5# inst|inst16|inst10|inst2~q $end
$var wire 1 6# inst|inst17|inst10|inst2~q $end
$var wire 1 7# inst|inst20|inst|41~7_combout $end
$var wire 1 8# inst|inst20|inst|41~8_combout $end
$var wire 1 9# inst|inst3|inst10|inst2~feeder_combout $end
$var wire 1 :# inst|inst3|inst10|inst2~q $end
$var wire 1 ;# inst|inst|inst10|inst2~feeder_combout $end
$var wire 1 <# inst|inst|inst10|inst2~q $end
$var wire 1 =# inst|inst4|inst10|inst2~q $end
$var wire 1 ># inst|inst2|inst10|inst2~feeder_combout $end
$var wire 1 ?# inst|inst2|inst10|inst2~q $end
$var wire 1 @# inst|inst20|inst|41~4_combout $end
$var wire 1 A# inst|inst20|inst|41~5_combout $end
$var wire 1 B# inst|inst5|inst10|inst2~feeder_combout $end
$var wire 1 C# inst|inst5|inst10|inst2~q $end
$var wire 1 D# inst|inst6|inst10|inst2~q $end
$var wire 1 E# inst|inst7|inst10|inst2~feeder_combout $end
$var wire 1 F# inst|inst7|inst10|inst2~q $end
$var wire 1 G# inst|inst8|inst10|inst2~q $end
$var wire 1 H# inst|inst20|inst|41~2_combout $end
$var wire 1 I# inst|inst20|inst|41~3_combout $end
$var wire 1 J# inst|inst20|inst|41~6_combout $end
$var wire 1 K# inst|inst20|inst|41~9_combout $end
$var wire 1 L# DATA_OUT_REG|inst10|inst2~q $end
$var wire 1 M# DATA_REG|inst9|inst2~feeder_combout $end
$var wire 1 N# DATA_REG|inst9|inst2~q $end
$var wire 1 O# inst|inst|inst9|inst2~q $end
$var wire 1 P# inst|inst6|inst9|inst2~feeder_combout $end
$var wire 1 Q# inst|inst6|inst9|inst2~q $end
$var wire 1 R# inst|inst20|inst2|41~7_combout $end
$var wire 1 S# inst|inst10|inst9|inst2~feeder_combout $end
$var wire 1 T# inst|inst10|inst9|inst2~q $end
$var wire 1 U# inst|inst14|inst9|inst2~q $end
$var wire 1 V# inst|inst20|inst2|41~8_combout $end
$var wire 1 W# inst|inst16|inst9|inst2~feeder_combout $end
$var wire 1 X# inst|inst16|inst9|inst2~q $end
$var wire 1 Y# inst|inst7|inst9|inst2~q $end
$var wire 1 Z# inst|inst12|inst9|inst2~feeder_combout $end
$var wire 1 [# inst|inst12|inst9|inst2~q $end
$var wire 1 \# inst|inst3|inst9|inst2~q $end
$var wire 1 ]# inst|inst20|inst2|41~0_combout $end
$var wire 1 ^# inst|inst20|inst2|41~1_combout $end
$var wire 1 _# inst|inst8|inst9|inst2~feeder_combout $end
$var wire 1 `# inst|inst8|inst9|inst2~q $end
$var wire 1 a# inst|inst17|inst9|inst2~q $end
$var wire 1 b# inst|inst13|inst9|inst2~feeder_combout $end
$var wire 1 c# inst|inst13|inst9|inst2~q $end
$var wire 1 d# inst|inst4|inst9|inst2~q $end
$var wire 1 e# inst|inst20|inst2|41~4_combout $end
$var wire 1 f# inst|inst20|inst2|41~5_combout $end
$var wire 1 g# inst|inst11|inst9|inst2~feeder_combout $end
$var wire 1 h# inst|inst11|inst9|inst2~q $end
$var wire 1 i# inst|inst15|inst9|inst2~q $end
$var wire 1 j# inst|inst5|inst9|inst2~feeder_combout $end
$var wire 1 k# inst|inst5|inst9|inst2~q $end
$var wire 1 l# inst|inst2|inst9|inst2~q $end
$var wire 1 m# inst|inst20|inst2|41~2_combout $end
$var wire 1 n# inst|inst20|inst2|41~3_combout $end
$var wire 1 o# inst|inst20|inst2|41~6_combout $end
$var wire 1 p# inst|inst20|inst2|41~9_combout $end
$var wire 1 q# DATA_OUT_REG|inst9|inst2~q $end
$var wire 1 r# DATA_REG|inst8|inst2~q $end
$var wire 1 s# inst|inst16|inst8|inst2~feeder_combout $end
$var wire 1 t# inst|inst16|inst8|inst2~q $end
$var wire 1 u# inst|inst14|inst8|inst2~q $end
$var wire 1 v# inst|inst17|inst8|inst2~q $end
$var wire 1 w# inst|inst15|inst8|inst2~feeder_combout $end
$var wire 1 x# inst|inst15|inst8|inst2~q $end
$var wire 1 y# inst|inst20|inst3|41~7_combout $end
$var wire 1 z# inst|inst20|inst3|41~8_combout $end
$var wire 1 {# inst|inst6|inst8|inst2~feeder_combout $end
$var wire 1 |# inst|inst6|inst8|inst2~q $end
$var wire 1 }# inst|inst7|inst8|inst2~q $end
$var wire 1 ~# inst|inst5|inst8|inst2~feeder_combout $end
$var wire 1 !$ inst|inst5|inst8|inst2~q $end
$var wire 1 "$ inst|inst8|inst8|inst2~q $end
$var wire 1 #$ inst|inst20|inst3|41~0_combout $end
$var wire 1 $$ inst|inst20|inst3|41~1_combout $end
$var wire 1 %$ inst|inst2|inst8|inst2~feeder_combout $end
$var wire 1 &$ inst|inst2|inst8|inst2~q $end
$var wire 1 '$ inst|inst|inst8|inst2~q $end
$var wire 1 ($ inst|inst3|inst8|inst2~feeder_combout $end
$var wire 1 )$ inst|inst3|inst8|inst2~q $end
$var wire 1 *$ inst|inst4|inst8|inst2~q $end
$var wire 1 +$ inst|inst20|inst3|41~4_combout $end
$var wire 1 ,$ inst|inst20|inst3|41~5_combout $end
$var wire 1 -$ inst|inst11|inst8|inst2~feeder_combout $end
$var wire 1 .$ inst|inst11|inst8|inst2~q $end
$var wire 1 /$ inst|inst10|inst8|inst2~q $end
$var wire 1 0$ inst|inst12|inst8|inst2~feeder_combout $end
$var wire 1 1$ inst|inst12|inst8|inst2~q $end
$var wire 1 2$ inst|inst13|inst8|inst2~q $end
$var wire 1 3$ inst|inst20|inst3|41~2_combout $end
$var wire 1 4$ inst|inst20|inst3|41~3_combout $end
$var wire 1 5$ inst|inst20|inst3|41~6_combout $end
$var wire 1 6$ inst|inst20|inst3|41~9_combout $end
$var wire 1 7$ DATA_OUT_REG|inst8|inst2~q $end
$var wire 1 8$ DATA_REG|inst|inst2~feeder_combout $end
$var wire 1 9$ DATA_REG|inst|inst2~q $end
$var wire 1 :$ inst|inst6|inst|inst2~feeder_combout $end
$var wire 1 ;$ inst|inst6|inst|inst2~q $end
$var wire 1 <$ inst|inst14|inst|inst2~q $end
$var wire 1 =$ inst|inst10|inst|inst2~feeder_combout $end
$var wire 1 >$ inst|inst10|inst|inst2~q $end
$var wire 1 ?$ inst|inst|inst|inst2~q $end
$var wire 1 @$ inst|inst20|inst4|41~7_combout $end
$var wire 1 A$ inst|inst20|inst4|41~8_combout $end
$var wire 1 B$ inst|inst5|inst|inst2~feeder_combout $end
$var wire 1 C$ inst|inst5|inst|inst2~q $end
$var wire 1 D$ inst|inst15|inst|inst2~feeder_combout $end
$var wire 1 E$ inst|inst15|inst|inst2~q $end
$var wire 1 F$ inst|inst2|inst|inst2~q $end
$var wire 1 G$ inst|inst11|inst|inst2~feeder_combout $end
$var wire 1 H$ inst|inst11|inst|inst2~q $end
$var wire 1 I$ inst|inst20|inst4|41~0_combout $end
$var wire 1 J$ inst|inst20|inst4|41~1_combout $end
$var wire 1 K$ inst|inst13|inst|inst2~feeder_combout $end
$var wire 1 L$ inst|inst13|inst|inst2~q $end
$var wire 1 M$ inst|inst17|inst|inst2~q $end
$var wire 1 N$ inst|inst4|inst|inst2~q $end
$var wire 1 O$ inst|inst8|inst|inst2~feeder_combout $end
$var wire 1 P$ inst|inst8|inst|inst2~q $end
$var wire 1 Q$ inst|inst20|inst4|41~4_combout $end
$var wire 1 R$ inst|inst20|inst4|41~5_combout $end
$var wire 1 S$ inst|inst12|inst|inst2~feeder_combout $end
$var wire 1 T$ inst|inst12|inst|inst2~q $end
$var wire 1 U$ inst|inst16|inst|inst2~q $end
$var wire 1 V$ inst|inst3|inst|inst2~q $end
$var wire 1 W$ inst|inst7|inst|inst2~feeder_combout $end
$var wire 1 X$ inst|inst7|inst|inst2~q $end
$var wire 1 Y$ inst|inst20|inst4|41~2_combout $end
$var wire 1 Z$ inst|inst20|inst4|41~3_combout $end
$var wire 1 [$ inst|inst20|inst4|41~6_combout $end
$var wire 1 \$ inst|inst20|inst4|41~9_combout $end
$var wire 1 ]$ DATA_OUT_REG|inst|inst2~q $end
$upscope $end
$upscope $end
$enddefinitions $end
#0
$dumpvars
0!
0"
0#
0$
0%
1&
0'
1(
0)
0*
0+
0,
1-
1.
0/
05#
06#
07#
08#
09#
0:#
0;#
0<#
0=#
0>#
0?#
0@#
0A#
0B#
0C#
0D#
0E#
0F#
0G#
0H#
0I#
0J#
0K#
0L#
0M#
0N#
0O#
0P#
0Q#
0R#
0S#
0T#
0U#
0V#
0W#
0X#
0Y#
0Z#
0[#
0\#
0]#
0^#
0_#
0`#
0a#
0b#
0c#
0d#
0e#
0f#
0g#
0h#
0i#
0j#
0k#
0l#
0m#
0n#
0o#
0p#
0q#
0r#
0s#
0t#
0u#
0v#
0w#
0x#
0y#
0z#
0{#
0|#
0}#
0~#
0!$
0"$
0#$
0$$
0%$
0&$
0'$
0($
0)$
0*$
0+$
0,$
0-$
0.$
0/$
00$
01$
02$
03$
04$
05$
06$
07$
08$
09$
0:$
0;$
0<$
0=$
0>$
0?$
0@$
0A$
0B$
0C$
0D$
0E$
0F$
0G$
0H$
0I$
0J$
0K$
0L$
0M$
0N$
0O$
0P$
0Q$
0R$
0S$
0T$
0U$
0V$
0W$
0X$
0Y$
0Z$
0[$
0\$
0]$
07
06
05
04
03
02
01
00
0?
0>
0=
0<
0;
0:
09
08
0G
0F
0E
0D
0C
0B
0A
0@
0O
0N
0M
0L
0K
0J
0I
0H
xP
0Q
1R
xS
1T
1U
1V
0W
0X
0Y
0Z
0[
0\
0]
0^
0_
0`
0a
0b
0c
0d
0e
0f
0g
0h
0i
0j
0k
0l
0m
0n
0o
0p
0q
0r
0s
0t
0u
0v
0w
0x
0y
0z
1{
1|
0}
0~
0!!
0"!
0#!
0$!
0%!
0&!
0'!
0(!
0)!
1*!
0+!
0,!
0-!
1.!
0/!
00!
01!
02!
03!
04!
05!
06!
07!
08!
09!
0:!
0;!
0<!
0=!
0>!
0?!
0@!
0A!
0B!
0C!
0D!
0E!
0F!
0G!
0H!
0I!
0J!
0K!
0L!
0M!
0N!
0O!
0P!
0Q!
1R!
0S!
0T!
0U!
0V!
0W!
0X!
0Y!
0Z!
0[!
0\!
0]!
0^!
0_!
0`!
0a!
0b!
0c!
0d!
0e!
0f!
0g!
0h!
0i!
0j!
0k!
0l!
0m!
0n!
0o!
0p!
0q!
0r!
0s!
0t!
0u!
0v!
0w!
0x!
0y!
0z!
0{!
0|!
0}!
0~!
0!"
0""
0#"
0$"
0%"
0&"
0'"
0("
0)"
0*"
0+"
0,"
0-"
0."
0/"
00"
01"
02"
03"
04"
05"
06"
07"
08"
09"
0:"
0;"
0<"
0="
0>"
0?"
0@"
0A"
0B"
0C"
0D"
0E"
0F"
0G"
0H"
0I"
0J"
0K"
0L"
0M"
0N"
0O"
0P"
0Q"
0R"
0S"
0T"
0U"
0V"
0W"
0X"
0Y"
0Z"
0["
0\"
0]"
0^"
0_"
0`"
0a"
0b"
0c"
0d"
0e"
0f"
0g"
0h"
0i"
0j"
0k"
0l"
0m"
0n"
0o"
0p"
0q"
0r"
0s"
0t"
0u"
0v"
0w"
0x"
0y"
0z"
0{"
0|"
0}"
0~"
0!#
0"#
0##
0$#
0%#
0&#
1'#
0(#
0)#
0*#
0+#
0,#
0-#
0.#
0/#
00#
01#
02#
03#
04#
$end
#10000
1!
1w
1x
0P
#20000
0!
0w
0x
1P
#30000
1!
1w
1x
0P
#40000
1"
0!
1z
0w
0x
1P
#50000
1!
1w
1x
0P
#60000
0!
0w
0x
1P
#70000
0"
1!
0z
1w
1x
0P
#80000
0!
0w
0x
1P
#90000
1#
1!
12!
1w
1x
0P
13!
#100000
0!
0w
0x
1P
#110000
1!
1w
1x
0P
1r#
1(#
10$
1-$
1($
1%$
1~#
1{#
1w#
1s#
1E#
1B#
1>#
1;#
19#
14#
11#
1,#
1)#
1m
1k
1F
1D
#120000
0!
0w
0x
1P
#130000
1!
1w
1x
0P
#140000
0!
0w
0x
1P
#150000
0#
1!
02!
1w
1x
0P
03!
#160000
0!
0w
0x
1P
#170000
1!
1w
1x
0P
#180000
0!
0w
0x
1P
#190000
1!
1w
1x
0P
#200000
0!
0w
0x
1P
#210000
1!
1w
1x
0P
#220000
0!
0w
0x
1P
#230000
1!
1w
1x
0P
#240000
0!
0w
0x
1P
#250000
1!
1w
1x
0P
#260000
0!
0w
0x
1P
#270000
1!
1w
1x
0P
#280000
0!
0w
0x
1P
#290000
1!
1w
1x
0P
#300000
0!
0w
0x
1P
#310000
1!
1w
1x
0P
#320000
0!
0w
0x
1P
#330000
1!
1w
1x
0P
#340000
0!
0w
0x
1P
#350000
1!
1w
1x
0P
#360000
0!
0w
0x
1P
#370000
1!
1w
1x
0P
#380000
0!
0w
0x
1P
#390000
1!
1w
1x
0P
#400000
0!
0w
0x
1P
#410000
1!
1w
1x
0P
#420000
0!
0w
0x
1P
#430000
1!
1w
1x
0P
#440000
0!
0w
0x
1P
#450000
1!
1w
1x
0P
#460000
0!
0w
0x
1P
#470000
1!
1w
1x
0P
#480000
0!
0w
0x
1P
#490000
1!
1w
1x
0P
#500000
0!
0w
0x
1P
#510000
0.
0-
1!
0|
0{
1w
1x
0P
#520000
0!
0w
0x
1P
#530000
1!
1w
1x
0P
#540000
0!
0w
0x
1P
#550000
1!
1w
1x
0P
#560000
0!
0w
0x
1P
#570000
1!
1w
1x
0P
#580000
0!
0w
0x
1P
#590000
1!
1w
1x
0P
#600000
0!
0w
0x
1P
#610000
1!
1w
1x
0P
#620000
0!
0w
0x
1P
#630000
1"
1!
1z
1w
1x
0P
1}
#640000
0!
0w
0x
1P
#650000
1!
1w
1x
0P
1/!
1+!
0R!
1E!
1]
1[
16
14
