simulation/qsim/trabalhofinalcd.msim.vcd
$comment
	File created using the following command:
		vcd file trabalhofinalcd.msim.vcd -direction
$end
$date
	Tue Apr 11 16:31:46 2023
$end
$version
	ModelSim Version 10.1d
$end
$timescale
	1ps
$end
$scope module MAQUINA_C_vlg_vec_tst $end
$var reg 1 ! clk $end
$var reg 1 " confirmaDA $end
$var reg 1 # confirmaFuncao $end
$var wire 1 $ C_VISOR_MSG $end
$var wire 1 % ESTADO [1] $end
$var wire 1 & ESTADO [0] $end
$var wire 1 ' habilita_counter $end
$var wire 1 ( LOAD_REG_SWAP_ADDRESS $end
$var wire 1 ) LOAD_REG_SWAP_DATA $end
$var wire 1 * SWAP_BLZ $end
$var wire 1 + WRITE_MEM $end
$var wire 1 , sampler $end
$scope module i1 $end
$var wire 1 - gnd $end
$var wire 1 . vcc $end
$var wire 1 / unknown $end
$var tri1 1 0 devclrn $end
$var tri1 1 1 devpor $end
$var tri1 1 2 devoe $end
$var wire 1 3 LOAD_REG_SWAP_ADDRESS~output_o $end
$var wire 1 4 ESTADO[1]~output_o $end
$var wire 1 5 ESTADO[0]~output_o $end
$var wire 1 6 LOAD_REG_SWAP_DATA~output_o $end
$var wire 1 7 habilita_counter~output_o $end
$var wire 1 8 C_VISOR_MSG~output_o $end
$var wire 1 9 WRITE_MEM~output_o $end
$var wire 1 : SWAP_BLZ~output_o $end
$var wire 1 ; clk~input_o $end
$var wire 1 < clk~inputclkctrl_outclk $end
$var wire 1 = confirmaFuncao~input_o $end
$var wire 1 > inst1~0_combout $end
$var wire 1 ? inst1~q $end
$var wire 1 @ inst~0_combout $end
$var wire 1 A inst~q $end
$var wire 1 B confirmaDA~input_o $end
$var wire 1 C inst8~combout $end
$var wire 1 D inst13~0_combout $end
$var wire 1 E inst7~combout $end
$var wire 1 F inst13~1_combout $end
$var wire 1 G inst13~2_combout $end
$upscope $end
$upscope $end
$enddefinitions $end
#0
$dumpvars
0!
0"
0#
1$
0&
0%
1'
0(
0)
0*
0+
x,
0-
1.
x/
10
11
12
03
04
05
06
17
18
09
0:
0;
0<
0=
0>
0?
0@
0A
0B
0C
0D
0E
0F
0G
$end
#15000
1!
1;
1<
0,
#30000
1"
0!
1B
0;
0<
1,
1C
13
1(
#45000
1!
1;
1<
0,
#50000
0"
0B
1,
0C
03
0(
#60000
0!
0;
0<
0,
#75000
1!
1;
1<
1,
#90000
0!
0;
0<
0,
#100000
1"
1B
1,
1C
13
1(
#105000
1!
1;
1<
0,
#120000
0"
0!
0B
0;
0<
1,
0C
03
0(
#135000
1!
1;
1<
0,
#150000
0!
0;
0<
1,
#165000
1!
1;
1<
0,
#180000
1#
0!
1=
0;
0<
1,
1@
#195000
1!
1;
1<
0,
1A
1E
0@
1>
15
1&
1D
07
08
16
0'
0$
1)
#210000
0!
0;
0<
1,
#220000
0#
0=
0,
#225000
1!
1;
1<
1,
0A
1?
1@
05
14
0&
1%
1F
0D
19
06
1+
0)
#240000
0!
0;
0<
0,
#255000
1!
1;
1<
1,
1A
15
1&
1G
0F
1:
09
1*
0+
#270000
0!
0;
0<
0,
#285000
1!
1;
1<
1,
#300000
0!
0;
0<
0,
#315000
1!
1;
1<
1,
#330000
0!
0;
0<
0,
#345000
1!
1;
1<
1,
#360000
0!
0;
0<
0,
#375000
1!
1;
1<
1,
#390000
0!
0;
0<
0,
#405000
1!
1;
1<
1,
#420000
0!
0;
0<
0,
#430000
1#
1=
1,
0@
0>
#435000
1!
1;
1<
0,
0A
0?
0E
1@
05
04
0&
0%
0G
17
18
0:
1'
1$
0*
#450000
0#
0!
0=
0;
0<
1,
0@
#465000
1!
1;
1<
0,
#480000
0!
0;
0<
1,
#495000
1!
1;
1<
0,
#510000
0!
0;
0<
1,
#525000
1!
1;
1<
0,
#540000
0!
0;
0<
1,
#555000
1!
1;
1<
0,
#570000
0!
0;
0<
1,
#585000
1!
1;
1<
0,
#600000
0!
0;
0<
1,
#615000
1!
1;
1<
0,
#630000
0!
0;
0<
1,
#645000
1!
1;
1<
0,
#660000
0!
0;
0<
1,
#675000
1!
1;
1<
0,
#690000
0!
0;
0<
1,
#705000
1!
1;
1<
0,
#720000
0!
0;
0<
1,
#735000
1!
1;
1<
0,
#750000
0!
0;
0<
1,
#765000
1!
1;
1<
0,
#780000
0!
0;
0<
1,
#795000
1!
1;
1<
0,
#810000
0!
0;
0<
1,
#825000
1!
1;
1<
0,
#840000
0!
0;
0<
1,
#855000
1!
1;
1<
0,
#870000
0!
0;
0<
1,
#885000
1!
1;
1<
0,
#900000
0!
0;
0<
1,
#915000
1!
1;
1<
0,
#930000
0!
0;
0<
1,
#945000
1!
1;
1<
0,
#960000
0!
0;
0<
1,
#975000
1!
1;
1<
0,
#990000
0!
0;
0<
1,
