simulation/qsim/trabalhofinalcd.msim.vcd
$comment
	File created using the following command:
		vcd file trabalhofinalcd.msim.vcd -direction
$end
$date
	Wed Apr 12 17:41:45 2023
$end
$version
	ModelSim Version 10.1d
$end
$timescale
	1ps
$end
$scope module UC_vlg_vec_tst $end
$var reg 1 ! clk $end
$var reg 1 " confirmaDA $end
$var reg 1 # confirmaFuncao $end
$var reg 1 $ trocaFuncao $end
$var wire 1 % A_ESTADO [1] $end
$var wire 1 & A_ESTADO [0] $end
$var wire 1 ' A_LOAD_REGS $end
$var wire 1 ( A_mostraDA $end
$var wire 1 ) B_done $end
$var wire 1 * B_ESTADO8 $end
$var wire 1 + B_LOAD_END $end
$var wire 1 , B_mostraD $end
$var wire 1 - C_ESTADO [1] $end
$var wire 1 . C_ESTADO [0] $end
$var wire 1 / count [1] $end
$var wire 1 0 count [0] $end
$var wire 1 1 LOAD_READ $end
$var wire 1 2 LOAD_SWAP_ADDRESS $end
$var wire 1 3 LOAD_SWAP_DATA $end
$var wire 1 4 msg_done $end
$var wire 1 5 S_mostraE $end
$var wire 1 6 write $end
$var wire 1 7 sampler $end
$scope module i1 $end
$var wire 1 8 gnd $end
$var wire 1 9 vcc $end
$var wire 1 : unknown $end
$var tri1 1 ; devclrn $end
$var tri1 1 < devpor $end
$var tri1 1 = devoe $end
$var wire 1 > S_mostraE~output_o $end
$var wire 1 ? count[1]~output_o $end
$var wire 1 @ count[0]~output_o $end
$var wire 1 A B_mostraD~output_o $end
$var wire 1 B msg_done~output_o $end
$var wire 1 C B_ESTADO8~output_o $end
$var wire 1 D B_done~output_o $end
$var wire 1 E write~output_o $end
$var wire 1 F LOAD_READ~output_o $end
$var wire 1 G B_LOAD_END~output_o $end
$var wire 1 H LOAD_SWAP_ADDRESS~output_o $end
$var wire 1 I LOAD_SWAP_DATA~output_o $end
$var wire 1 J A_LOAD_REGS~output_o $end
$var wire 1 K A_mostraDA~output_o $end
$var wire 1 L A_ESTADO[1]~output_o $end
$var wire 1 M A_ESTADO[0]~output_o $end
$var wire 1 N C_ESTADO[1]~output_o $end
$var wire 1 O C_ESTADO[0]~output_o $end
$var wire 1 P clk~input_o $end
$var wire 1 Q clk~inputclkctrl_outclk $end
$var wire 1 R trocaFuncao~input_o $end
$var wire 1 S inst1~q $end
$var wire 1 T inst|inst2~0_combout $end
$var wire 1 U confirmaFuncao~input_o $end
$var wire 1 V inst4|inst1~0_combout $end
$var wire 1 W inst4|inst7~0_combout $end
$var wire 1 X inst4|inst7~q $end
$var wire 1 Y inst4|inst16~0_combout $end
$var wire 1 Z inst4|inst16~q $end
$var wire 1 [ inst4|inst1~1_combout $end
$var wire 1 \ inst4|inst1~q $end
$var wire 1 ] inst4|inst13~0_combout $end
$var wire 1 ^ inst2|inst22~1_combout $end
$var wire 1 _ inst2|inst25~1_combout $end
$var wire 1 ` inst2|inst25~2_combout $end
$var wire 1 a inst2|inst25~q $end
$var wire 1 b inst2|inst1~2_combout $end
$var wire 1 c inst2|inst1~q $end
$var wire 1 d inst2|inst22~0_combout $end
$var wire 1 e inst2|inst22~2_combout $end
$var wire 1 f inst2|inst22~q $end
$var wire 1 g inst2|inst25~0_combout $end
$var wire 1 h inst2|inst~0_combout $end
$var wire 1 i inst2|inst~q $end
$var wire 1 j inst|inst2~1_combout $end
$var wire 1 k inst8|inst2~0_combout $end
$var wire 1 l inst3|inst14~0_combout $end
$var wire 1 m inst3|inst14~q $end
$var wire 1 n inst3|inst~0_combout $end
$var wire 1 o inst3|inst~q $end
$var wire 1 p inst3|inst33~0_combout $end
$var wire 1 q inst3|inst13~2_combout $end
$var wire 1 r inst3|inst13~q $end
$var wire 1 s inst3|inst34~0_combout $end
$var wire 1 t inst|inst2~2_combout $end
$var wire 1 u inst|inst~0_combout $end
$var wire 1 v inst|inst~q $end
$var wire 1 w inst|inst1~0_combout $end
$var wire 1 x inst|inst1~q $end
$var wire 1 y inst2|inst18~0_combout $end
$var wire 1 z inst3|inst37~0_combout $end
$var wire 1 { inst2|inst24~0_combout $end
$var wire 1 | inst7~combout $end
$var wire 1 } inst4|inst6~0_combout $end
$var wire 1 ~ inst3|inst36~0_combout $end
$var wire 1 !! inst2|inst23~0_combout $end
$var wire 1 "! inst7or~combout $end
$var wire 1 #! confirmaDA~input_o $end
$var wire 1 $! inst4|inst10~0_combout $end
$var wire 1 %! inst2|inst17~0_combout $end
$var wire 1 &! inst2|inst19~0_combout $end
$var wire 1 '! inst3|inst35~0_combout $end
$upscope $end
$upscope $end
$enddefinitions $end
#0
$dumpvars
0!
0"
0#
0$
0&
0%
0'
0(
0)
0*
0+
0,
0.
0-
00
0/
01
02
03
04
05
06
x7
08
19
x:
1;
1<
1=
0>
0?
0@
0A
0B
0C
0D
0E
0F
0G
0H
0I
0J
0K
0L
0M
0N
0O
0P
0Q
0R
0S
0T
0U
0V
0W
0X
0Y
0Z
0[
0\
0]
0^
0_
0`
0a
0b
0c
0d
0e
0f
0g
0h
0i
1j
0k
0l
0m
0n
0o
0p
0q
0r
0s
0t
0u
0v
0w
0x
0y
0z
0{
0|
0}
0~
0!!
0"!
0#!
0$!
0%!
0&!
0'!
$end
#12500
1!
1P
1Q
07
#25000
0!
0P
0Q
17
#37500
1!
1P
1Q
07
#50000
0!
0P
0Q
17
#62500
1!
1P
1Q
07
#75000
1$
0!
1R
0P
0Q
17
1T
1t
1u
#87500
1!
1P
1Q
07
1S
1v
0T
1w
0u
1k
0j
1@
10
1s
0t
1K
1(
0w
1u
#100000
0!
0P
0Q
17
#112500
1!
1P
1Q
07
#125000
0!
0P
0Q
17
#137500
1!
1P
1Q
07
#150000
0$
0!
0R
0P
0Q
17
#162500
1!
1P
1Q
07
0S
#175000
0!
0P
0Q
17
#187500
1!
1P
1Q
07
#200000
0!
0P
0Q
17
#212500
1!
1P
1Q
07
#225000
1$
0!
1R
0P
0Q
17
1T
1t
1w
0u
#237500
1!
1P
1Q
07
1S
1x
0v
0T
0k
1u
1?
0@
1/
00
0s
1]
0t
0K
1A
0(
1,
0u
#250000
0!
0P
0Q
17
#262500
1!
1P
1Q
07
#275000
0!
0P
0Q
17
#287500
1!
1P
1Q
07
#300000
0$
0!
0R
0P
0Q
17
#312500
1!
1P
1Q
07
0S
#325000
0!
0P
0Q
17
#337500
1!
1P
1Q
07
#350000
0!
0P
0Q
17
#362500
1!
1P
1Q
07
#375000
1$
0!
1R
0P
0Q
17
1T
1t
1u
#387500
1!
1P
1Q
07
1S
1v
0T
0w
0u
1j
1@
10
1y
0]
0t
1>
0A
15
0,
1w
1u
#400000
0!
0P
0Q
17
#412500
1!
1P
1Q
07
#425000
0!
0P
0Q
17
#437500
1!
1P
1Q
07
#450000
0$
0!
0R
0P
0Q
17
#462500
1!
1P
1Q
07
0S
#475000
0!
0P
0Q
17
#487500
1!
1P
1Q
07
#500000
0!
0P
0Q
17
#512500
1!
1P
1Q
07
#525000
1$
0!
1R
0P
0Q
17
1T
1t
0w
0u
#537500
1!
1P
1Q
07
1S
0x
0v
0T
1u
0?
0@
0/
00
0y
0t
0>
05
0u
#550000
0!
0P
0Q
17
#562500
1!
1P
1Q
07
#575000
0!
0P
0Q
17
#587500
1!
1P
1Q
07
#600000
0$
0!
0R
0P
0Q
17
#612500
1!
1P
1Q
07
0S
#625000
0!
0P
0Q
17
#637500
1!
1P
1Q
07
#650000
0!
0P
0Q
17
#662500
1!
1P
1Q
07
#675000
1$
0!
1R
0P
0Q
17
1T
1t
1u
#687500
1!
1P
1Q
07
1S
1v
0T
1w
0u
1k
0j
1@
10
1s
0t
1K
1(
0w
1u
#700000
0!
0P
0Q
17
#712500
1!
1P
1Q
07
#725000
0!
0P
0Q
17
#737500
1!
1P
1Q
07
#750000
0$
0!
0R
0P
0Q
17
#762500
1!
1P
1Q
07
0S
#775000
0!
0P
0Q
17
#787500
1!
1P
1Q
07
#800000
0!
0P
0Q
17
#812500
1!
1P
1Q
07
#825000
1$
0!
1R
0P
0Q
17
1T
1t
1w
0u
#837500
1!
1P
1Q
07
1S
1x
0v
0T
0k
1u
1?
0@
1/
00
0s
1]
0t
0K
1A
0(
1,
0u
#850000
0!
0P
0Q
17
#862500
1!
1P
1Q
07
#875000
0!
0P
0Q
17
#887500
1!
1P
1Q
07
#900000
0$
0!
0R
0P
0Q
17
#912500
1!
1P
1Q
07
0S
#925000
0!
0P
0Q
17
#937500
1!
1P
1Q
07
#950000
0!
0P
0Q
17
#962500
1!
1P
1Q
07
#975000
1$
0!
1R
0P
0Q
17
1T
1t
1u
#987500
1!
1P
1Q
07
1S
1v
0T
0w
0u
1j
1@
10
1y
0]
0t
1>
0A
15
0,
1w
1u
#1000000
0!
0P
0Q
17
#1012500
1!
1P
1Q
07
#1025000
0!
0P
0Q
17
#1037500
1!
1P
1Q
07
#1050000
0$
0!
0R
0P
0Q
17
#1062500
1!
1P
1Q
07
0S
#1075000
0!
0P
0Q
17
#1087500
1!
1P
1Q
07
#1100000
0!
0P
0Q
17
#1112500
1!
1P
1Q
07
#1125000
1$
0!
1R
0P
0Q
17
1T
1t
0w
0u
#1137500
1!
1P
1Q
07
1S
0x
0v
0T
1u
0?
0@
0/
00
0y
0t
0>
05
0u
#1150000
0!
0P
0Q
17
#1162500
1!
1P
1Q
07
#1175000
0!
0P
0Q
17
#1187500
1!
1P
1Q
07
#1200000
0$
0!
0R
0P
0Q
17
#1212500
1!
1P
1Q
07
0S
#1225000
0!
0P
0Q
17
#1237500
1!
1P
1Q
07
#1250000
0!
0P
0Q
17
#1262500
1!
1P
1Q
07
#1275000
1$
0!
1R
0P
0Q
17
1T
1t
1u
#1287500
1!
1P
1Q
07
1S
1v
0T
1w
0u
1k
0j
1@
10
1s
0t
1K
1(
0w
1u
#1300000
0!
0P
0Q
17
#1312500
1!
1P
1Q
07
#1325000
0!
0P
0Q
17
#1337500
1!
1P
1Q
07
#1350000
0$
0!
0R
0P
0Q
17
#1362500
1!
1P
1Q
07
0S
#1375000
0!
0P
0Q
17
#1387500
1!
1P
1Q
07
#1400000
0!
0P
0Q
17
#1412500
1!
1P
1Q
07
#1425000
1$
0!
1R
0P
0Q
17
1T
1t
1w
0u
#1437500
1!
1P
1Q
07
1S
1x
0v
0T
0k
1u
1?
0@
1/
00
0s
1]
0t
0K
1A
0(
1,
0u
#1450000
0!
0P
0Q
17
#1462500
1!
1P
1Q
07
#1475000
0!
0P
0Q
17
#1487500
1!
1P
1Q
07
#1500000
0$
0!
0R
0P
0Q
17
#1512500
1!
1P
1Q
07
0S
#1525000
0!
0P
0Q
17
#1537500
1!
1P
1Q
07
#1550000
0!
0P
0Q
17
#1562500
1!
1P
1Q
07
#1575000
1$
0!
1R
0P
0Q
17
1T
1t
1u
#1587500
1!
1P
1Q
07
1S
1v
0T
0w
0u
1j
1@
10
1y
0]
0t
1>
0A
15
0,
1w
1u
#1600000
0!
0P
0Q
17
#1612500
1!
1P
1Q
07
#1625000
0!
0P
0Q
17
#1637500
1!
1P
1Q
07
#1650000
0$
0!
0R
0P
0Q
17
#1662500
1!
1P
1Q
07
0S
#1675000
0!
0P
0Q
17
#1687500
1!
1P
1Q
07
#1700000
0!
0P
0Q
17
#1712500
1!
1P
1Q
07
#1725000
1$
0!
1R
0P
0Q
17
1T
1t
0w
0u
#1737500
1!
1P
1Q
07
1S
0x
0v
0T
1u
0?
0@
0/
00
0y
0t
0>
05
0u
#1750000
0!
0P
0Q
17
#1762500
1!
1P
1Q
07
#1775000
0!
0P
0Q
17
#1787500
1!
1P
1Q
07
#1800000
0$
0!
0R
0P
0Q
17
#1812500
1!
1P
1Q
07
0S
#1825000
0!
0P
0Q
17
#1837500
1!
1P
1Q
07
#1850000
0!
0P
0Q
17
#1862500
1!
1P
1Q
07
#1875000
1$
0!
1R
0P
0Q
17
1T
1t
1u
#1887500
1!
1P
1Q
07
1S
1v
0T
1w
0u
1k
0j
1@
10
1s
0t
1K
1(
0w
1u
#1900000
0!
0P
0Q
17
#1912500
1!
1P
1Q
07
#1925000
0!
0P
0Q
17
#1937500
1!
1P
1Q
07
#1950000
0$
0!
0R
0P
0Q
17
#1962500
1!
1P
1Q
07
0S
#1975000
0!
0P
0Q
17
#1987500
1!
1P
1Q
07
#2000000
0!
0P
0Q
17
#2012500
1!
1P
1Q
07
#2025000
1$
0!
1R
0P
0Q
17
1T
1t
1w
0u
#2037500
1!
1P
1Q
07
1S
1x
0v
0T
0k
1u
1?
0@
1/
00
0s
1]
0t
0K
1A
0(
1,
0u
#2050000
0!
0P
0Q
17
#2062500
1!
1P
1Q
07
#2075000
0!
0P
0Q
17
#2087500
1!
1P
1Q
07
#2100000
0$
0!
0R
0P
0Q
17
#2112500
1!
1P
1Q
07
0S
#2125000
0!
0P
0Q
17
#2137500
1!
1P
1Q
07
#2150000
0!
0P
0Q
17
#2162500
1!
1P
1Q
07
#2175000
1$
0!
1R
0P
0Q
17
1T
1t
1u
#2187500
1!
1P
1Q
07
1S
1v
0T
0w
0u
1j
1@
10
1y
0]
0t
1>
0A
15
0,
1w
1u
#2200000
0!
0P
0Q
17
#2212500
1!
1P
1Q
07
#2225000
0!
0P
0Q
17
#2237500
1!
1P
1Q
07
#2250000
0$
0!
0R
0P
0Q
17
#2262500
1!
1P
1Q
07
0S
#2275000
0!
0P
0Q
17
#2287500
1!
1P
1Q
07
#2300000
0!
0P
0Q
17
#2312500
1!
1P
1Q
07
#2325000
1$
0!
1R
0P
0Q
17
1T
1t
0w
0u
#2337500
1!
1P
1Q
07
1S
0x
0v
0T
1u
0?
0@
0/
00
0y
0t
0>
05
0u
#2350000
0!
0P
0Q
17
#2362500
1!
1P
1Q
07
#2375000
0!
0P
0Q
17
#2387500
1!
1P
1Q
07
#2400000
0$
0!
0R
0P
0Q
17
#2412500
1!
1P
1Q
07
0S
#2425000
0!
0P
0Q
17
#2437500
1!
1P
1Q
07
#2450000
0!
0P
0Q
17
#2462500
1!
1P
1Q
07
#2475000
1$
0!
1R
0P
0Q
17
1T
1t
1u
#2487500
1!
1P
1Q
07
1S
1v
0T
1w
0u
1k
0j
1@
10
1s
0t
1K
1(
0w
1u
#2500000
0!
0P
0Q
17
#2512500
1!
1P
1Q
07
#2525000
0!
0P
0Q
17
#2537500
1!
1P
1Q
07
#2550000
0$
0!
0R
0P
0Q
17
#2562500
1!
1P
1Q
07
0S
#2575000
0!
0P
0Q
17
#2587500
1!
1P
1Q
07
#2600000
0!
0P
0Q
17
#2612500
1!
1P
1Q
07
#2625000
1$
0!
1R
0P
0Q
17
1T
1t
1w
0u
#2637500
1!
1P
1Q
07
1S
1x
0v
0T
0k
1u
1?
0@
1/
00
0s
1]
0t
0K
1A
0(
1,
0u
#2650000
0!
0P
0Q
17
#2662500
1!
1P
1Q
07
#2675000
0!
0P
0Q
17
#2687500
1!
1P
1Q
07
#2700000
0$
0!
0R
0P
0Q
17
#2712500
1!
1P
1Q
07
0S
#2725000
0!
0P
0Q
17
#2737500
1!
1P
1Q
07
#2750000
0!
0P
0Q
17
#2762500
1!
1P
1Q
07
#2775000
1$
0!
1R
0P
0Q
17
1T
1t
1u
#2787500
1!
1P
1Q
07
1S
1v
0T
0w
0u
1j
1@
10
1y
0]
0t
1>
0A
15
0,
1w
1u
#2800000
0!
0P
0Q
17
#2812500
1!
1P
1Q
07
#2825000
0!
0P
0Q
17
#2837500
1!
1P
1Q
07
#2850000
0$
0!
0R
0P
0Q
17
#2862500
1!
1P
1Q
07
0S
#2875000
0!
0P
0Q
17
#2887500
1!
1P
1Q
07
#2900000
0!
0P
0Q
17
#2912500
1!
1P
1Q
07
#2925000
1$
0!
1R
0P
0Q
17
1T
1t
0w
0u
#2937500
1!
1P
1Q
07
1S
0x
0v
0T
1u
0?
0@
0/
00
0y
0t
0>
05
0u
#2950000
0!
0P
0Q
17
#2962500
1!
1P
1Q
07
#2975000
0!
0P
0Q
17
#2987500
1!
1P
1Q
07
