simulation/qsim/trabalhofinalcd.msim.vcd
$comment
	File created using the following command:
		vcd file trabalhofinalcd.msim.vcd -direction
$end
$date
	Fri Apr 14 11:34:03 2023
$end
$version
	ModelSim Version 10.1d
$end
$timescale
	1ps
$end
$scope module decoddisplay_vlg_vec_tst $end
$var reg 1 ! A $end
$var reg 1 " B $end
$var reg 1 # C $end
$var reg 1 $ D $end
$var wire 1 % OUT [6] $end
$var wire 1 & OUT [5] $end
$var wire 1 ' OUT [4] $end
$var wire 1 ( OUT [3] $end
$var wire 1 ) OUT [2] $end
$var wire 1 * OUT [1] $end
$var wire 1 + OUT [0] $end
$var wire 1 , sampler $end
$scope module i1 $end
$var wire 1 - gnd $end
$var wire 1 . vcc $end
$var wire 1 / unknown $end
$var tri1 1 0 devclrn $end
$var tri1 1 1 devpor $end
$var tri1 1 2 devoe $end
$var wire 1 3 OUT[6]~output_o $end
$var wire 1 4 OUT[5]~output_o $end
$var wire 1 5 OUT[4]~output_o $end
$var wire 1 6 OUT[3]~output_o $end
$var wire 1 7 OUT[2]~output_o $end
$var wire 1 8 OUT[1]~output_o $end
$var wire 1 9 OUT[0]~output_o $end
$var wire 1 : D~input_o $end
$var wire 1 ; A~input_o $end
$var wire 1 < C~input_o $end
$var wire 1 = B~input_o $end
$var wire 1 > inst7|inst~0_combout $end
$var wire 1 ? inst6|inst~0_combout $end
$var wire 1 @ inst5|inst7~0_combout $end
$var wire 1 A inst4|inst~0_combout $end
$var wire 1 B inst3|inst~0_combout $end
$var wire 1 C inst2|inst~0_combout $end
$var wire 1 D inst|inst~0_combout $end
$upscope $end
$upscope $end
$enddefinitions $end
#0
$dumpvars
0!
0"
0#
0$
0+
0*
0)
0(
0'
0&
1%
x,
0-
1.
x/
10
11
12
13
04
05
06
07
08
09
0:
0;
0<
0=
0>
0?
1@
1A
1B
1C
1D
$end
#50000
1$
1:
0,
0D
0A
0@
1?
19
16
15
14
1+
1(
1'
1&
#100000
1#
0$
1<
0:
1,
1D
0B
1A
1@
1>
09
17
06
05
03
0+
1)
0(
0'
0%
#150000
1$
1:
0,
1B
0@
07
15
0)
1'
#200000
1"
0#
0$
1=
0<
0:
1,
0D
0A
0?
19
16
04
1+
1(
0&
#250000
1$
1:
0,
1D
0C
1A
09
18
06
0+
1*
0(
#300000
1#
0$
1<
0:
1,
1@
05
0'
#350000
1$
1:
0,
1C
0A
0@
0>
1?
08
16
15
13
14
0*
1(
1'
1%
1&
#400000
1!
0"
0#
0$
1;
0=
0<
0:
1,
1A
1@
1>
0?
06
05
03
04
0(
0'
0%
0&
#450000
1$
1:
0,
0A
0@
16
15
1(
1'
#500000
1#
0$
1<
0:
1,
1@
05
0'
#550000
1$
1:
0,
0D
0C
1A
19
18
06
1+
1*
0(
#600000
1"
0#
0$
1=
0<
0:
1,
0B
1?
17
14
1)
1&
#650000
1$
1:
0,
1C
1B
08
07
0*
0)
#700000
1#
0$
1<
0:
1,
1D
0C
0B
0?
09
18
17
04
0+
1*
1)
0&
#750000
1$
1:
0,
0A
16
1(
#800000
0!
0"
0#
0$
0;
0=
0<
0:
1,
1C
1B
1A
0>
08
07
06
13
0*
0)
0(
1%
#850000
1$
1:
0,
0D
0A
0@
1?
19
16
15
14
1+
1(
1'
1&
#900000
1#
0$
1<
0:
1,
1D
0B
1A
1@
1>
09
17
06
05
03
0+
1)
0(
0'
0%
#950000
1$
1:
0,
1B
0@
07
15
0)
1'
